WorkSpace/register/simulation/qsim/register.msim.vcd
$comment
	File created using the following command:
		vcd file register.msim.vcd -direction
$end
$date
	Sat May 29 17:47:12 2021
$end
$version
	ModelSim Version 10.1d
$end
$timescale
	1ps
$end
$scope module register_vlg_vec_tst $end
$var reg 1 ! clk $end
$var reg 8 " inReg [7:0] $end
$var reg 1 # reset $end
$var wire 1 $ outReg [7] $end
$var wire 1 % outReg [6] $end
$var wire 1 & outReg [5] $end
$var wire 1 ' outReg [4] $end
$var wire 1 ( outReg [3] $end
$var wire 1 ) outReg [2] $end
$var wire 1 * outReg [1] $end
$var wire 1 + outReg [0] $end
$var wire 1 , sampler $end
$scope module i1 $end
$var wire 1 - gnd $end
$var wire 1 . vcc $end
$var wire 1 / unknown $end
$var tri1 1 0 devclrn $end
$var tri1 1 1 devpor $end
$var tri1 1 2 devoe $end
$var wire 1 3 clk~combout $end
$var wire 1 4 clk~clkctrl_outclk $end
$var wire 1 5 reset~combout $end
$var wire 1 6 reset~clkctrl_outclk $end
$var wire 1 7 outReg[0]~reg0_regout $end
$var wire 1 8 outReg[1]~reg0_regout $end
$var wire 1 9 outReg[2]~reg0feeder_combout $end
$var wire 1 : outReg[2]~reg0_regout $end
$var wire 1 ; outReg[3]~reg0feeder_combout $end
$var wire 1 < outReg[3]~reg0_regout $end
$var wire 1 = outReg[4]~reg0feeder_combout $end
$var wire 1 > outReg[4]~reg0_regout $end
$var wire 1 ? outReg[5]~reg0_regout $end
$var wire 1 @ outReg[6]~reg0feeder_combout $end
$var wire 1 A outReg[6]~reg0_regout $end
$var wire 1 B outReg[7]~reg0feeder_combout $end
$var wire 1 C outReg[7]~reg0_regout $end
$var wire 1 D inReg~combout [7] $end
$var wire 1 E inReg~combout [6] $end
$var wire 1 F inReg~combout [5] $end
$var wire 1 G inReg~combout [4] $end
$var wire 1 H inReg~combout [3] $end
$var wire 1 I inReg~combout [2] $end
$var wire 1 J inReg~combout [1] $end
$var wire 1 K inReg~combout [0] $end
$upscope $end
$upscope $end
$enddefinitions $end
#0
$dumpvars
0!
b1110001 "
0#
0+
0*
0)
0(
0'
0&
0%
0$
x,
0-
1.
x/
10
11
12
03
04
05
06
07
08
09
0:
0;
0<
1=
0>
0?
1@
0A
0B
0C
1K
0J
0I
0H
1G
1F
1E
0D
$end
#5000
1!
13
14
0,
#10000
b11110001 "
b10110001 "
b10010001 "
b10000001 "
b10000101 "
b10000111 "
0!
1J
1I
0G
0F
0E
1D
03
04
1,
19
0=
0@
1B
#15000
1!
13
14
0,
#20000
b11000111 "
b11100111 "
b11100101 "
0!
0J
1F
1E
03
04
1,
1@
#25000
1!
13
14
0,
#30000
b11101101 "
b11101100 "
b1101100 "
b1111100 "
b1111110 "
0!
0K
1J
1H
1G
0D
03
04
1,
1;
1=
0B
#35000
1!
13
14
0,
#40000
b1111010 "
b111010 "
b111000 "
0!
0J
0I
0E
03
04
1,
09
0@
#45000
1!
13
14
0,
#50000
b111001 "
b10111001 "
b10101001 "
b10101011 "
0!
1K
1J
0G
1D
03
04
1,
0=
1B
#55000
1!
13
14
0,
#60000
1#
b10001011 "
b10001111 "
b11001111 "
0!
15
1I
0F
1E
03
04
16
1,
19
1@
#65000
1!
13
14
0,
1C
1A
1<
1:
18
17
1$
1%
1(
1)
1*
1+
#70000
b1001111 "
b1001101 "
b1101101 "
b1101001 "
0!
0J
0I
1F
0D
03
04
1,
09
0B
#75000
1!
13
14
0,
0C
1?
0:
08
0$
1&
0)
0*
#80000
b1100001 "
b11100001 "
b11000001 "
b11000101 "
0!
1I
0H
0F
1D
03
04
1,
19
0;
1B
#85000
1!
13
14
0,
1C
0?
0<
1:
1$
0&
0(
1)
#90000
b11010101 "
b10010101 "
0!
1G
0E
03
04
1,
1=
0@
#95000
1!
13
14
0,
0A
1>
0%
1'
#100000
b10011101 "
b11101 "
b111101 "
0!
1H
1F
0D
03
04
1,
1;
0B
#105000
1!
13
14
0,
0C
1?
1<
0$
1&
1(
#110000
b111111 "
b1111111 "
b1011111 "
0!
1J
0F
1E
03
04
1,
1@
#115000
1!
13
14
0,
1A
0?
18
1%
0&
1*
#120000
b1011110 "
b1010110 "
b11010110 "
b11010100 "
b10010100 "
b10110100 "
0!
0K
0J
0H
1F
0E
1D
03
04
1,
0;
0@
1B
#125000
1!
13
14
0,
1C
0A
1?
0<
08
07
1$
0%
1&
0(
0*
0+
#130000
0#
b10100100 "
b10100101 "
b10101101 "
b10001101 "
0!
05
1K
1H
0G
0F
03
04
06
1,
1;
0=
0?
0:
0>
0C
0&
0)
0'
0$
#135000
1!
13
14
0,
#140000
b10001001 "
b1001 "
b1001001 "
b1001000 "
0!
0K
0I
1E
0D
03
04
1,
09
1@
0B
#145000
1!
13
14
0,
#150000
b1001010 "
b1011010 "
b1111010 "
b1111110 "
0!
1J
1I
1G
1F
03
04
1,
19
1=
#155000
1!
13
14
0,
#160000
b1111111 "
b1101111 "
b1101011 "
0!
1K
0I
0G
03
04
1,
09
0=
#165000
1!
13
14
0,
#170000
b101011 "
b101001 "
b1001 "
b1101 "
0!
0J
1I
0F
0E
03
04
1,
19
0@
#175000
1!
13
14
0,
#180000
b1001101 "
b1001111 "
b1101111 "
b1101011 "
0!
1J
0I
1F
1E
03
04
1,
09
1@
#185000
1!
13
14
0,
#190000
b11101011 "
b11101010 "
b11111010 "
b11111000 "
b11011000 "
b11011100 "
0!
0K
0J
1I
1G
0F
1D
03
04
1,
19
1=
1B
#195000
1!
13
14
0,
#200000
b11010100 "
b10010100 "
b10100 "
b100 "
b100100 "
0!
0H
0G
1F
0E
0D
03
04
1,
0;
0=
0@
0B
#205000
1!
13
14
0,
#210000
b100110 "
b1100110 "
b1110110 "
b1010110 "
0!
1J
1G
0F
1E
03
04
1,
1=
1@
#215000
1!
13
14
0,
#220000
b1010111 "
b11010111 "
b11010101 "
b10010101 "
0!
1K
0J
0E
1D
03
04
1,
0@
1B
#225000
1!
13
14
0,
#230000
b10011101 "
b10001101 "
b10101101 "
b10101100 "
b101100 "
b101110 "
0!
0K
1J
1H
0G
1F
0D
03
04
1,
1;
0=
0B
#235000
1!
13
14
0,
#240000
b101010 "
b100010 "
b10 "
b11 "
0!
1K
0I
0H
0F
03
04
1,
09
0;
#245000
1!
13
14
0,
#250000
b1000011 "
b1010011 "
b1010010 "
0!
0K
1G
1E
03
04
1,
1=
1@
#255000
1!
13
14
0,
#260000
b11010010 "
b11010000 "
b11010100 "
b11011100 "
0!
0J
1I
1H
1D
03
04
1,
19
1;
1B
#265000
1!
13
14
0,
#270000
b11011110 "
b11010110 "
0!
1J
0H
03
04
1,
0;
#275000
1!
13
14
0,
#280000
b11000110 "
b11000111 "
b1000111 "
b1000011 "
b1000001 "
0!
1K
0J
0I
0G
0D
03
04
1,
09
0=
0B
#285000
1!
13
14
0,
#290000
b1000000 "
b11000000 "
b11000010 "
0!
0K
1J
1D
03
04
1,
1B
#295000
1!
13
14
0,
#300000
b11100010 "
b11101010 "
b11101011 "
b1101011 "
b1101001 "
0!
1K
0J
1H
1F
0D
03
04
1,
1;
0B
#305000
1!
13
14
0,
#310000
b1111001 "
b1111101 "
b1111111 "
0!
1J
1I
1G
03
04
1,
19
1=
#315000
1!
13
14
0,
#320000
b111111 "
b101111 "
0!
0G
0E
03
04
1,
0=
0@
#325000
1!
13
14
0,
#330000
b1111 "
b1011 "
b1001011 "
0!
0I
0F
1E
03
04
1,
09
1@
#335000
1!
13
14
0,
#340000
b1000011 "
b11000011 "
b11000001 "
b10000001 "
0!
0J
0H
0E
1D
03
04
1,
0;
0@
1B
#345000
1!
13
14
0,
#350000
b10100001 "
b10100101 "
b100101 "
b100111 "
b1100111 "
0!
1J
1I
1F
1E
0D
03
04
1,
19
1@
0B
#355000
1!
13
14
0,
#360000
b1000111 "
b11000111 "
0!
0F
1D
03
04
1,
1B
#365000
1!
13
14
0,
#370000
b11000110 "
b11010110 "
b11010010 "
b11010000 "
b10010000 "
b10000 "
0!
0K
0J
0I
1G
0E
0D
03
04
1,
09
1=
0@
0B
#375000
1!
13
14
0,
#380000
b0 "
b10 "
b1000010 "
0!
1J
0G
1E
03
04
1,
0=
1@
#385000
1!
13
14
0,
#390000
b1000011 "
b1000111 "
0!
1K
1I
03
04
1,
19
#395000
1!
13
14
0,
#400000
b1010111 "
b10111 "
b10011 "
0!
0I
1G
0E
03
04
1,
09
1=
0@
#405000
1!
13
14
0,
#410000
b110011 "
b110010 "
b100010 "
b1100010 "
0!
0K
0G
1F
1E
03
04
1,
0=
1@
#415000
1!
13
14
0,
#420000
b1101010 "
b11101010 "
b11101110 "
b11001110 "
b11001111 "
b10001111 "
0!
1K
1I
1H
0F
0E
1D
03
04
1,
19
1;
0@
1B
#425000
1!
13
14
0,
#430000
b10001101 "
b10011101 "
b10010101 "
b10101 "
b10100 "
0!
0K
0J
0H
1G
0D
03
04
1,
0;
1=
0B
#435000
1!
13
14
0,
#440000
b1010100 "
b11010100 "
b11010101 "
0!
1K
1E
1D
03
04
1,
1@
1B
#445000
1!
13
14
0,
#450000
b11110101 "
b11100101 "
b11101101 "
0!
1H
0G
1F
03
04
1,
1;
0=
#455000
1!
13
14
0,
#460000
b11101001 "
b1101001 "
b1101000 "
b1001000 "
b1011000 "
b1010000 "
0!
0K
0I
0H
1G
0F
0D
03
04
1,
09
0;
1=
0B
#465000
1!
13
14
0,
#470000
b1010010 "
b10010 "
b10110 "
b110110 "
b111110 "
0!
1J
1I
1H
1F
0E
03
04
1,
19
1;
0@
#475000
1!
13
14
0,
#480000
b10111110 "
b10111111 "
b10101111 "
b10101101 "
b11101101 "
b11101001 "
b11001001 "
0!
1K
0J
0I
0G
0F
1E
1D
03
04
1,
09
0=
1@
1B
#485000
1!
13
14
0,
#490000
b1001001 "
b1011001 "
b1111001 "
0!
1G
1F
0D
03
04
1,
1=
0B
#495000
1!
13
14
0,
#500000
b1110001 "
b1110000 "
b11110000 "
b11100000 "
b11000000 "
0!
0K
0H
0G
0F
1D
03
04
1,
0;
0=
1B
#505000
1!
13
14
0,
#510000
b11000100 "
b11001100 "
b11001101 "
b11011101 "
0!
1K
1I
1H
1G
03
04
1,
19
1;
1=
#515000
1!
13
14
0,
#520000
b11011111 "
b10011111 "
b11111 "
b111111 "
b111011 "
b110011 "
b100011 "
0!
1J
0I
0H
0G
1F
0E
0D
03
04
1,
09
0;
0=
0@
0B
#525000
1!
13
14
0,
#530000
b100010 "
b100000 "
b10100000 "
b10100100 "
b10101100 "
b10111100 "
0!
0K
0J
1I
1H
1G
1D
03
04
1,
19
1;
1=
1B
#535000
1!
13
14
0,
#540000
b11111100 "
b11111101 "
b11111111 "
b1111111 "
b1110111 "
0!
1K
1J
0H
1E
0D
03
04
1,
0;
1@
0B
#545000
1!
13
14
0,
#550000
b110111 "
0!
0E
03
04
1,
0@
#555000
1!
13
14
0,
#560000
b100111 "
b101111 "
b1101111 "
0!
1H
0G
1E
03
04
1,
1;
0=
1@
#565000
1!
13
14
0,
#570000
b1001111 "
b1001011 "
b1001010 "
b11001010 "
b11011010 "
b11010010 "
b10010010 "
0!
0K
0I
0H
1G
0F
0E
1D
03
04
1,
09
0;
1=
0@
1B
#575000
1!
13
14
0,
#580000
b10010 "
b10 "
b1010 "
0!
1H
0G
0D
03
04
1,
1;
0=
0B
#585000
1!
13
14
0,
#590000
b1000 "
b1001 "
b10001001 "
b10011001 "
b10010001 "
0!
1K
0J
0H
1G
1D
03
04
1,
0;
1=
1B
#595000
1!
13
14
0,
#600000
b11010001 "
b11010000 "
b1010000 "
b1000000 "
0!
0K
0G
1E
0D
03
04
1,
0=
1@
0B
#605000
1!
13
14
0,
#610000
b1100000 "
b1100100 "
b1100110 "
b1101110 "
b101110 "
b111110 "
0!
1J
1I
1H
1G
1F
0E
03
04
1,
19
1;
1=
0@
#615000
1!
13
14
0,
#620000
b10111110 "
b10111010 "
b11111010 "
0!
0I
1E
1D
03
04
1,
09
1@
1B
#625000
1!
13
14
0,
#630000
b11111011 "
b11011011 "
b11011001 "
b11010001 "
b11000001 "
b1000001 "
0!
1K
0J
0H
0G
0F
0D
03
04
1,
0;
0=
0B
#635000
1!
13
14
0,
#640000
b1 "
b11 "
b10011 "
b10010011 "
0!
1J
1G
0E
1D
03
04
1,
1=
0@
1B
#645000
1!
13
14
0,
#650000
b10010010 "
b10110010 "
b11110010 "
b11110000 "
b11100000 "
0!
0K
0J
0G
1F
1E
03
04
1,
0=
1@
#655000
1!
13
14
0,
#660000
b11100100 "
b11101100 "
b1101100 "
b1101101 "
b1001101 "
b1001111 "
b1011111 "
0!
1K
1J
1I
1H
1G
0F
0D
03
04
1,
19
1;
1=
0B
#665000
1!
13
14
0,
#670000
b1011011 "
b1010011 "
b1110011 "
b1110001 "
0!
0J
0I
0H
1F
03
04
1,
09
0;
#675000
1!
13
14
0,
#680000
b110001 "
b100001 "
b101001 "
b1001 "
b1011 "
0!
1J
1H
0G
0F
0E
03
04
1,
1;
0=
0@
#685000
1!
13
14
0,
#690000
b1010 "
0!
0K
03
04
1,
#695000
1!
13
14
0,
#700000
0!
03
04
1,
#705000
1!
13
14
0,
#710000
b10001010 "
b11001010 "
b11011010 "
b11010010 "
b11110010 "
0!
0H
1G
1F
1E
1D
03
04
1,
0;
1=
1@
1B
#715000
1!
13
14
0,
#720000
b11110110 "
b11110100 "
b11110101 "
b1110101 "
b1100101 "
b1101101 "
0!
1K
0J
1I
1H
0G
0D
03
04
1,
19
1;
0=
0B
#725000
1!
13
14
0,
#730000
b1101001 "
b1101011 "
b1111011 "
0!
1J
0I
1G
03
04
1,
09
1=
#735000
1!
13
14
0,
#740000
b111011 "
b111010 "
b10111010 "
b10110010 "
b10110110 "
b10110100 "
0!
0K
0J
1I
0H
0E
1D
03
04
1,
19
0;
0@
1B
#745000
1!
13
14
0,
#750000
b10010100 "
b10010101 "
b10010001 "
0!
1K
0I
0F
03
04
1,
09
#755000
1!
13
14
0,
#760000
b11010001 "
b1010001 "
b1011001 "
b1011011 "
b1111011 "
0!
1J
1H
1F
1E
0D
03
04
1,
1;
1@
0B
#765000
1!
13
14
0,
#770000
b1111111 "
b1110111 "
b1110101 "
b1010101 "
0!
0J
1I
0H
0F
03
04
1,
19
0;
#775000
1!
13
14
0,
#780000
b1010001 "
b1011001 "
b1011011 "
0!
1J
0I
1H
03
04
1,
09
1;
#785000
1!
13
14
0,
#790000
b1001011 "
b1001010 "
b1010 "
b10001010 "
b10101010 "
b10101110 "
b10101100 "
0!
0K
0J
1I
0G
1F
0E
1D
03
04
1,
19
0=
0@
1B
#795000
1!
13
14
0,
#800000
b11101100 "
b1101100 "
b1001100 "
0!
0F
1E
0D
03
04
1,
1@
0B
#805000
1!
13
14
0,
#810000
b1000100 "
b1010100 "
b1010101 "
b11010101 "
0!
1K
0H
1G
1D
03
04
1,
0;
1=
1B
#815000
1!
13
14
0,
#820000
b10010101 "
b10110101 "
b10111101 "
b10111100 "
b111100 "
0!
0K
1H
1F
0E
0D
03
04
1,
1;
0@
0B
#825000
1!
13
14
0,
#830000
b111000 "
b1111000 "
b1011000 "
b1011001 "
0!
1K
0I
0F
1E
03
04
1,
09
1@
#835000
1!
13
14
0,
#840000
b1010001 "
b11010001 "
b11010101 "
b11110101 "
0!
1I
0H
1F
1D
03
04
1,
19
0;
1B
#845000
1!
13
14
0,
#850000
b11100101 "
b10100101 "
b10101101 "
b101101 "
b1101 "
0!
1H
0G
0F
0E
0D
03
04
1,
1;
0=
0@
0B
#855000
1!
13
14
0,
#860000
b1111 "
b1011 "
b11011 "
b1011011 "
b11011011 "
0!
1J
0I
1G
1E
1D
03
04
1,
09
1=
1@
1B
#865000
1!
13
14
0,
#870000
b11011010 "
b11010010 "
b11110010 "
b11110000 "
b11110100 "
b10110100 "
b110100 "
0!
0K
0J
1I
0H
1F
0E
0D
03
04
1,
19
0;
0@
0B
#875000
1!
13
14
0,
#880000
b100100 "
b1100100 "
b11100100 "
0!
0G
1E
1D
03
04
1,
0=
1@
1B
#885000
1!
13
14
0,
#890000
b11100101 "
b11101101 "
b11101001 "
b11111001 "
0!
1K
0I
1H
1G
03
04
1,
09
1;
1=
#895000
1!
13
14
0,
#900000
b11011001 "
b1011001 "
b1011000 "
b1010000 "
0!
0K
0H
0F
0D
03
04
1,
0;
0B
#905000
1!
13
14
0,
#910000
b1010010 "
b10010 "
b10010010 "
b10011010 "
0!
1J
1H
0E
1D
03
04
1,
1;
0@
1B
#915000
1!
13
14
0,
#920000
b10001010 "
b10001000 "
b11001000 "
b1001000 "
b1000000 "
0!
0J
0H
0G
1E
0D
03
04
1,
0;
0=
1@
0B
#925000
1!
13
14
0,
#930000
b1000100 "
b1000110 "
b110 "
b10000110 "
b10001110 "
0!
1J
1I
1H
0E
1D
03
04
1,
19
1;
0@
1B
#935000
1!
13
14
0,
#940000
b10101110 "
b10101010 "
b11101010 "
b1101010 "
0!
0I
1F
1E
0D
03
04
1,
09
1@
0B
#945000
1!
13
14
0,
#950000
b1100010 "
b11100010 "
0!
0H
1D
03
04
1,
0;
1B
#955000
1!
13
14
0,
#960000
b11100011 "
b11000011 "
b11001011 "
0!
1K
1H
0F
03
04
1,
1;
#965000
1!
13
14
0,
#970000
b11011011 "
b11011111 "
b10011111 "
b10010111 "
0!
1I
0H
1G
0E
03
04
1,
19
0;
1=
0@
#975000
1!
13
14
0,
#980000
b10111 "
b111 "
0!
0G
0D
03
04
1,
0=
0B
#985000
1!
13
14
0,
#990000
b101 "
b100 "
b100100 "
b100000 "
b1100000 "
b1101000 "
b11101000 "
0!
0K
0J
0I
1H
1F
1E
1D
03
04
1,
09
1;
1@
1B
#995000
1!
13
14
0,
