workSpace/simulation/qsim/digitalCircuits.msim.vcd
$comment
	File created using the following command:
		vcd file digitalCircuits.msim.vcd -direction
$end
$date
	Wed Jul 28 20:45:50 2021
$end
$version
	ModelSim Version 10.1d
$end
$timescale
	1ps
$end
$scope module trueDualPort_vlg_vec_tst $end
$var reg 1 ! clk $end
$var reg 8 " din_a [7:0] $end
$var reg 8 # din_b [7:0] $end
$var reg 3 $ r_addr_a [2:0] $end
$var reg 3 % r_addr_b [2:0] $end
$var reg 3 & w_addr_a [2:0] $end
$var reg 3 ' w_addr_b [2:0] $end
$var reg 1 ( we $end
$var wire 1 ) dout_a [7] $end
$var wire 1 * dout_a [6] $end
$var wire 1 + dout_a [5] $end
$var wire 1 , dout_a [4] $end
$var wire 1 - dout_a [3] $end
$var wire 1 . dout_a [2] $end
$var wire 1 / dout_a [1] $end
$var wire 1 0 dout_a [0] $end
$var wire 1 1 dout_b [7] $end
$var wire 1 2 dout_b [6] $end
$var wire 1 3 dout_b [5] $end
$var wire 1 4 dout_b [4] $end
$var wire 1 5 dout_b [3] $end
$var wire 1 6 dout_b [2] $end
$var wire 1 7 dout_b [1] $end
$var wire 1 8 dout_b [0] $end
$var wire 1 9 sampler $end
$scope module i1 $end
$var wire 1 : gnd $end
$var wire 1 ; vcc $end
$var wire 1 < unknown $end
$var tri1 1 = devclrn $end
$var tri1 1 > devpor $end
$var tri1 1 ? devoe $end
$var wire 1 @ ram~20_q $end
$var wire 1 A ram~46_q $end
$var wire 1 B ram~54_q $end
$var wire 1 C ram~96_combout $end
$var wire 1 D ram~116_combout $end
$var wire 1 E ram~117_combout $end
$var wire 1 F w_addr_a[2]~input_o $end
$var wire 1 G w_addr_b[0]~input_o $end
$var wire 1 H dout_a[0]~output_o $end
$var wire 1 I dout_a[1]~output_o $end
$var wire 1 J dout_a[2]~output_o $end
$var wire 1 K dout_a[3]~output_o $end
$var wire 1 L dout_a[4]~output_o $end
$var wire 1 M dout_a[5]~output_o $end
$var wire 1 N dout_a[6]~output_o $end
$var wire 1 O dout_a[7]~output_o $end
$var wire 1 P dout_b[0]~output_o $end
$var wire 1 Q dout_b[1]~output_o $end
$var wire 1 R dout_b[2]~output_o $end
$var wire 1 S dout_b[3]~output_o $end
$var wire 1 T dout_b[4]~output_o $end
$var wire 1 U dout_b[5]~output_o $end
$var wire 1 V dout_b[6]~output_o $end
$var wire 1 W dout_b[7]~output_o $end
$var wire 1 X clk~input_o $end
$var wire 1 Y clk~inputclkctrl_outclk $end
$var wire 1 Z din_a[0]~input_o $end
$var wire 1 [ w_addr_a[1]~input_o $end
$var wire 1 \ we~input_o $end
$var wire 1 ] w_addr_a[0]~input_o $end
$var wire 1 ^ rtl~8_combout $end
$var wire 1 _ ram~68_combout $end
$var wire 1 ` din_b[0]~input_o $end
$var wire 1 a w_addr_b[1]~input_o $end
$var wire 1 b w_addr_b[2]~input_o $end
$var wire 1 c rtl~9_combout $end
$var wire 1 d ram~40_q $end
$var wire 1 e rtl~14_combout $end
$var wire 1 f ram~71_combout $end
$var wire 1 g rtl~15_combout $end
$var wire 1 h ram~56_q $end
$var wire 1 i r_addr_a[1]~input_o $end
$var wire 1 j rtl~12_combout $end
$var wire 1 k ram~70_combout $end
$var wire 1 l rtl~13_combout $end
$var wire 1 m ram~32_q $end
$var wire 1 n rtl~10_combout $end
$var wire 1 o ram~69_combout $end
$var wire 1 p rtl~11_combout $end
$var wire 1 q ram~48_q $end
$var wire 1 r ram~128_combout $end
$var wire 1 s ram~129_combout $end
$var wire 1 t rtl~6_combout $end
$var wire 1 u ram~67_combout $end
$var wire 1 v rtl~7_combout $end
$var wire 1 w ram~24_q $end
$var wire 1 x rtl~4_combout $end
$var wire 1 y ram~66_combout $end
$var wire 1 z rtl~5_combout $end
$var wire 1 { ram~0_q $end
$var wire 1 | rtl~2_combout $end
$var wire 1 } ram~65_combout $end
$var wire 1 ~ rtl~3_combout $end
$var wire 1 !! ram~8_q $end
$var wire 1 "! ram~130_combout $end
$var wire 1 #! ram~131_combout $end
$var wire 1 $! ram~132_combout $end
$var wire 1 %! dout_a[0]~reg0_q $end
$var wire 1 &! din_a[1]~input_o $end
$var wire 1 '! ram~79_combout $end
$var wire 1 (! din_b[1]~input_o $end
$var wire 1 )! ram~57_q $end
$var wire 1 *! ram~78_combout $end
$var wire 1 +! ram~33_q $end
$var wire 1 ,! ram~77_combout $end
$var wire 1 -! ram~49_q $end
$var wire 1 .! ram~133_combout $end
$var wire 1 /! ram~76_combout $end
$var wire 1 0! ram~41_q $end
$var wire 1 1! ram~134_combout $end
$var wire 1 2! rtl~0_combout $end
$var wire 1 3! ram~72_combout $end
$var wire 1 4! rtl~1_combout $end
$var wire 1 5! ram~17_q $end
$var wire 1 6! ram~73_combout $end
$var wire 1 7! ram~9_q $end
$var wire 1 8! ram~74_combout $end
$var wire 1 9! ram~1_q $end
$var wire 1 :! ram~135_combout $end
$var wire 1 ;! ram~136_combout $end
$var wire 1 <! ram~137_combout $end
$var wire 1 =! dout_a[1]~reg0_q $end
$var wire 1 >! r_addr_a[2]~input_o $end
$var wire 1 ?! ram~80_combout $end
$var wire 1 @! din_b[2]~input_o $end
$var wire 1 A! ram~18_q $end
$var wire 1 B! din_a[2]~input_o $end
$var wire 1 C! ram~83_combout $end
$var wire 1 D! ram~26_q $end
$var wire 1 E! r_addr_a[0]~input_o $end
$var wire 1 F! ram~82_combout $end
$var wire 1 G! ram~2_q $end
$var wire 1 H! ram~81_combout $end
$var wire 1 I! ram~10_q $end
$var wire 1 J! ram~140_combout $end
$var wire 1 K! ram~141_combout $end
$var wire 1 L! ram~87_combout $end
$var wire 1 M! ram~58_q $end
$var wire 1 N! ram~84_combout $end
$var wire 1 O! ram~42_q $end
$var wire 1 P! ram~85_combout $end
$var wire 1 Q! ram~50_q $end
$var wire 1 R! ram~86_combout $end
$var wire 1 S! ram~34_q $end
$var wire 1 T! ram~138_combout $end
$var wire 1 U! ram~139_combout $end
$var wire 1 V! ram~142_combout $end
$var wire 1 W! dout_a[2]~reg0_q $end
$var wire 1 X! din_a[3]~input_o $end
$var wire 1 Y! ram~88_combout $end
$var wire 1 Z! din_b[3]~input_o $end
$var wire 1 [! ram~19_q $end
$var wire 1 \! ram~91_combout $end
$var wire 1 ]! ram~27_q $end
$var wire 1 ^! ram~90_combout $end
$var wire 1 _! ram~3_q $end
$var wire 1 `! ram~89_combout $end
$var wire 1 a! ram~11_q $end
$var wire 1 b! ram~145_combout $end
$var wire 1 c! ram~146_combout $end
$var wire 1 d! ram~92_combout $end
$var wire 1 e! ram~43_q $end
$var wire 1 f! ram~93_combout $end
$var wire 1 g! ram~51_q $end
$var wire 1 h! ram~94_combout $end
$var wire 1 i! ram~35_q $end
$var wire 1 j! ram~143_combout $end
$var wire 1 k! ram~144_combout $end
$var wire 1 l! ram~147_combout $end
$var wire 1 m! dout_a[3]~reg0_q $end
$var wire 1 n! din_a[4]~input_o $end
$var wire 1 o! ram~103_combout $end
$var wire 1 p! din_b[4]~input_o $end
$var wire 1 q! ram~60_q $end
$var wire 1 r! ram~100_combout $end
$var wire 1 s! ram~44_q $end
$var wire 1 t! ram~101_combout $end
$var wire 1 u! ram~52_q $end
$var wire 1 v! ram~102_combout $end
$var wire 1 w! ram~36_q $end
$var wire 1 x! ram~148_combout $end
$var wire 1 y! ram~149_combout $end
$var wire 1 z! ram~98_combout $end
$var wire 1 {! ram~4_q $end
$var wire 1 |! ram~97_combout $end
$var wire 1 }! ram~12_q $end
$var wire 1 ~! ram~150_combout $end
$var wire 1 !" ram~99_combout $end
$var wire 1 "" ram~28_q $end
$var wire 1 #" ram~151_combout $end
$var wire 1 $" ram~152_combout $end
$var wire 1 %" dout_a[4]~reg0_q $end
$var wire 1 &" din_a[5]~input_o $end
$var wire 1 '" ram~104_combout $end
$var wire 1 (" din_b[5]~input_o $end
$var wire 1 )" ram~21_q $end
$var wire 1 *" ram~107_combout $end
$var wire 1 +" ram~29_q $end
$var wire 1 ," ram~105_combout $end
$var wire 1 -" ram~13_q $end
$var wire 1 ." ram~106_combout $end
$var wire 1 /" ram~5_q $end
$var wire 1 0" ram~155_combout $end
$var wire 1 1" ram~156_combout $end
$var wire 1 2" ram~108_combout $end
$var wire 1 3" ram~45_q $end
$var wire 1 4" ram~109_combout $end
$var wire 1 5" ram~53_q $end
$var wire 1 6" ram~110_combout $end
$var wire 1 7" ram~37_q $end
$var wire 1 8" ram~153_combout $end
$var wire 1 9" ram~154_combout $end
$var wire 1 :" ram~157_combout $end
$var wire 1 ;" dout_a[5]~reg0_q $end
$var wire 1 <" din_a[6]~input_o $end
$var wire 1 =" ram~119_combout $end
$var wire 1 >" din_b[6]~input_o $end
$var wire 1 ?" ram~62_q $end
$var wire 1 @" ram~118_combout $end
$var wire 1 A" ram~38_q $end
$var wire 1 B" ram~158_combout $end
$var wire 1 C" ram~159_combout $end
$var wire 1 D" ram~115_combout $end
$var wire 1 E" ram~30_q $end
$var wire 1 F" ram~112_combout $end
$var wire 1 G" ram~22_q $end
$var wire 1 H" ram~114_combout $end
$var wire 1 I" ram~6_q $end
$var wire 1 J" ram~113_combout $end
$var wire 1 K" ram~14_q $end
$var wire 1 L" ram~160_combout $end
$var wire 1 M" ram~161_combout $end
$var wire 1 N" ram~162_combout $end
$var wire 1 O" dout_a[6]~reg0_q $end
$var wire 1 P" ram~127_combout $end
$var wire 1 Q" din_b[7]~input_o $end
$var wire 1 R" ram~63_q $end
$var wire 1 S" ram~125_combout $end
$var wire 1 T" ram~55_q $end
$var wire 1 U" ram~126_combout $end
$var wire 1 V" ram~39_q $end
$var wire 1 W" ram~163_combout $end
$var wire 1 X" ram~164_combout $end
$var wire 1 Y" din_a[7]~input_o $end
$var wire 1 Z" ram~120_combout $end
$var wire 1 [" ram~23_q $end
$var wire 1 \" ram~121_combout $end
$var wire 1 ]" ram~15_q $end
$var wire 1 ^" ram~122_combout $end
$var wire 1 _" ram~7_q $end
$var wire 1 `" ram~165_combout $end
$var wire 1 a" ram~166_combout $end
$var wire 1 b" ram~167_combout $end
$var wire 1 c" dout_a[7]~reg0_q $end
$var wire 1 d" r_addr_b[2]~input_o $end
$var wire 1 e" r_addr_b[0]~input_o $end
$var wire 1 f" ram~168_combout $end
$var wire 1 g" ram~169_combout $end
$var wire 1 h" ram~64_combout $end
$var wire 1 i" ram~16_q $end
$var wire 1 j" ram~170_combout $end
$var wire 1 k" ram~171_combout $end
$var wire 1 l" ram~172_combout $end
$var wire 1 m" dout_b[0]~reg0_q $end
$var wire 1 n" r_addr_b[1]~input_o $end
$var wire 1 o" ram~173_combout $end
$var wire 1 p" ram~174_combout $end
$var wire 1 q" ram~75_combout $end
$var wire 1 r" ram~25_q $end
$var wire 1 s" ram~175_combout $end
$var wire 1 t" ram~176_combout $end
$var wire 1 u" ram~177_combout $end
$var wire 1 v" dout_b[1]~reg0_q $end
$var wire 1 w" ram~180_combout $end
$var wire 1 x" ram~181_combout $end
$var wire 1 y" ram~178_combout $end
$var wire 1 z" ram~179_combout $end
$var wire 1 {" ram~182_combout $end
$var wire 1 |" dout_b[2]~reg0_q $end
$var wire 1 }" ram~95_combout $end
$var wire 1 ~" ram~59_q $end
$var wire 1 !# ram~183_combout $end
$var wire 1 "# ram~184_combout $end
$var wire 1 ## ram~185_combout $end
$var wire 1 $# ram~186_combout $end
$var wire 1 %# ram~187_combout $end
$var wire 1 &# dout_b[3]~reg0_q $end
$var wire 1 '# ram~188_combout $end
$var wire 1 (# ram~189_combout $end
$var wire 1 )# ram~190_combout $end
$var wire 1 *# ram~191_combout $end
$var wire 1 +# ram~192_combout $end
$var wire 1 ,# dout_b[4]~reg0_q $end
$var wire 1 -# ram~195_combout $end
$var wire 1 .# ram~196_combout $end
$var wire 1 /# ram~111_combout $end
$var wire 1 0# ram~61_q $end
$var wire 1 1# ram~193_combout $end
$var wire 1 2# ram~194_combout $end
$var wire 1 3# ram~197_combout $end
$var wire 1 4# dout_b[5]~reg0_q $end
$var wire 1 5# ram~198_combout $end
$var wire 1 6# ram~199_combout $end
$var wire 1 7# ram~200_combout $end
$var wire 1 8# ram~201_combout $end
$var wire 1 9# ram~202_combout $end
$var wire 1 :# dout_b[6]~reg0_q $end
$var wire 1 ;# ram~205_combout $end
$var wire 1 <# ram~123_combout $end
$var wire 1 =# ram~31_q $end
$var wire 1 ># ram~206_combout $end
$var wire 1 ?# ram~124_combout $end
$var wire 1 @# ram~47_q $end
$var wire 1 A# ram~203_combout $end
$var wire 1 B# ram~204_combout $end
$var wire 1 C# ram~207_combout $end
$var wire 1 D# dout_b[7]~reg0_q $end
$upscope $end
$upscope $end
$enddefinitions $end
#0
$dumpvars
0!
b0 "
b0 #
b0 $
b0 %
b0 &
b0 '
0(
00
0/
0.
0-
0,
0+
0*
0)
08
07
06
05
04
03
02
01
x9
0:
1;
x<
1=
1>
1?
0@
0A
0B
0C
0D
0E
0F
0G
0H
0I
0J
0K
0L
0M
0N
0O
0P
0Q
0R
0S
0T
0U
0V
0W
0X
0Y
0Z
0[
0\
0]
0^
0_
0`
0a
0b
0c
0d
0e
0f
0g
0h
0i
0j
0k
0l
0m
0n
0o
0p
0q
0r
0s
0t
0u
0v
0w
0x
0y
0z
0{
0|
0}
0~
0!!
0"!
0#!
0$!
0%!
0&!
0'!
0(!
0)!
0*!
0+!
0,!
0-!
0.!
0/!
00!
01!
02!
03!
04!
05!
06!
07!
08!
09!
0:!
0;!
0<!
0=!
0>!
0?!
0@!
0A!
0B!
0C!
0D!
0E!
0F!
0G!
0H!
0I!
0J!
0K!
0L!
0M!
0N!
0O!
0P!
0Q!
0R!
0S!
0T!
0U!
0V!
0W!
0X!
0Y!
0Z!
0[!
0\!
0]!
0^!
0_!
0`!
0a!
0b!
0c!
0d!
0e!
0f!
0g!
0h!
0i!
0j!
0k!
0l!
0m!
0n!
0o!
0p!
0q!
0r!
0s!
0t!
0u!
0v!
0w!
0x!
0y!
0z!
0{!
0|!
0}!
0~!
0!"
0""
0#"
0$"
0%"
0&"
0'"
0("
0)"
0*"
0+"
0,"
0-"
0."
0/"
00"
01"
02"
03"
04"
05"
06"
07"
08"
09"
0:"
0;"
0<"
0="
0>"
0?"
0@"
0A"
0B"
0C"
0D"
0E"
0F"
0G"
0H"
0I"
0J"
0K"
0L"
0M"
0N"
0O"
0P"
0Q"
0R"
0S"
0T"
0U"
0V"
0W"
0X"
0Y"
0Z"
0["
0\"
0]"
0^"
0_"
0`"
0a"
0b"
0c"
0d"
0e"
0f"
0g"
0h"
0i"
0j"
0k"
0l"
0m"
0n"
0o"
0p"
0q"
0r"
0s"
0t"
0u"
0v"
0w"
0x"
0y"
0z"
0{"
0|"
0}"
0~"
0!#
0"#
0##
0$#
0%#
0&#
0'#
0(#
0)#
0*#
0+#
0,#
0-#
0.#
0/#
00#
01#
02#
03#
04#
05#
06#
07#
08#
09#
0:#
0;#
0<#
0=#
0>#
0?#
0@#
0A#
0B#
0C#
0D#
$end
#5000
1!
1X
1Y
09
#10000
0!
0X
0Y
19
#15000
1!
1X
1Y
09
#20000
0!
0X
0Y
19
#25000
1!
1X
1Y
09
#30000
0!
0X
0Y
19
#35000
1!
1X
1Y
09
#40000
0!
0X
0Y
19
#45000
1!
1X
1Y
09
#50000
0!
0X
0Y
19
#55000
1!
1X
1Y
09
#60000
0!
0X
0Y
19
#65000
1!
1X
1Y
09
#70000
0!
0X
0Y
19
#75000
1!
1X
1Y
09
#80000
0!
0X
0Y
19
#85000
1!
1X
1Y
09
#90000
0!
0X
0Y
19
#95000
1!
1X
1Y
09
#100000
0!
0X
0Y
19
#105000
1!
1X
1Y
09
#110000
0!
0X
0Y
19
#115000
1!
1X
1Y
09
#120000
1(
b100 '
b110 '
b111 '
0!
1\
1G
1a
1b
0X
0Y
19
1x
1g
#125000
1!
1X
1Y
09
#130000
b100 "
b101 "
0!
1Z
1B!
0X
0Y
19
1y
1F!
#135000
1!
1X
1Y
09
1G!
1{
1w"
1J!
1j"
1"!
1x"
1K!
1k"
1#!
1{"
1V!
1l"
1$!
#140000
b1101 "
b1111 "
b1 &
b1011 "
b1010 "
0!
1]
0Z
1&!
0B!
1X!
0X
0Y
19
1|
0x
0y
18!
0F!
1^!
1`!
16!
0^!
1F!
08!
1y
#145000
1!
1X
1Y
09
1a!
17!
1|"
1m"
1W!
1%!
1R
1P
1J
1H
16
18
1.
10
#150000
b11 &
b10 "
b10 &
b110 "
b111 "
0!
1Z
1B!
0X!
0]
1[
0X
0Y
19
1}
1H!
0`!
12!
0|
1h"
1?!
13!
1`!
0H!
0}
#155000
1!
1X
1Y
09
1i"
1A!
15!
#160000
b100111 "
b110111 "
b110101 "
b11 &
0!
1]
0&!
1n!
1&"
0X
0Y
19
02!
1t
03!
1C
1'"
0'"
13!
0C
1*"
1!"
1C!
1u
#165000
1!
1X
1Y
09
1+"
1""
1D!
1w
#170000
0(
b1 &
b110001 "
b110000 "
b10000 "
b0 "
b0 &
0!
0\
0Z
0B!
0n!
0&"
0]
0[
0X
0Y
19
0t
0g
0u
0C!
0!"
0*"
1*"
1!"
1C!
1u
#175000
1!
1X
1Y
09
#180000
b11 '
b1 '
b0 '
0!
0G
0a
0b
0X
0Y
19
#185000
1!
1X
1Y
09
#190000
0!
0X
0Y
19
#195000
1!
1X
1Y
09
#200000
b1 $
0!
1E!
0X
0Y
19
1b!
0J!
1:!
0"!
1c!
0K!
1;!
0#!
1l!
0V!
1<!
0$!
#205000
1!
1X
1Y
09
1m!
0W!
1=!
0%!
1K
0J
1I
0H
1-
0.
1/
00
#210000
b11 $
b10 $
0!
0E!
1i
0X
0Y
19
0b!
0:!
0c!
1K!
0;!
1#!
1;!
0l!
1V!
0<!
1$!
1<!
#215000
1!
1X
1Y
09
0m!
1W!
1%!
0K
1J
1H
0-
1.
10
#220000
b11 $
0!
1E!
0X
0Y
19
1`"
1W"
1L"
1B"
18"
10"
1~!
1x!
1j!
1b!
1T!
1J!
1:!
1.!
1"!
1r
11"
1#"
0;!
1:"
1$"
0<!
#225000
1!
1X
1Y
09
1;"
1%"
0=!
1M
1L
0I
1+
1,
0/
#230000
b1 $
b0 $
0!
0E!
0i
0X
0Y
19
0`"
1X"
0W"
0L"
1C"
0B"
19"
08"
00"
0~!
1y!
0x!
1k!
0j!
0b!
1U!
0T!
0:!
11!
0.!
1s
0r
1a"
1M"
1c!
1;!
0a"
1b"
0X"
0M"
1N"
0C"
09"
01"
0#"
0y!
1l!
0k!
0c!
0U!
0;!
1<!
01!
0s
0b"
0N"
0:"
0$"
0l!
0<!
#235000
1!
1X
1Y
09
0;"
0%"
0M
0L
0+
0,
#240000
0!
0X
0Y
19
#245000
1!
1X
1Y
09
#250000
0!
0X
0Y
19
#255000
1!
1X
1Y
09
#260000
0!
0X
0Y
19
#265000
1!
1X
1Y
09
#270000
0!
0X
0Y
19
#275000
1!
1X
1Y
09
#280000
0!
0X
0Y
19
#285000
1!
1X
1Y
09
#290000
0!
0X
0Y
19
#295000
1!
1X
1Y
09
#300000
0!
0X
0Y
19
#305000
1!
1X
1Y
09
#310000
0!
0X
0Y
19
#315000
1!
1X
1Y
09
#320000
0!
0X
0Y
19
#325000
1!
1X
1Y
09
#330000
0!
0X
0Y
19
#335000
1!
1X
1Y
09
#340000
0!
0X
0Y
19
#345000
1!
1X
1Y
09
#350000
0!
0X
0Y
19
#355000
1!
1X
1Y
09
#360000
0!
0X
0Y
19
#365000
1!
1X
1Y
09
#370000
0!
0X
0Y
19
#375000
1!
1X
1Y
09
#380000
0!
0X
0Y
19
#385000
1!
1X
1Y
09
#390000
0!
0X
0Y
19
#395000
1!
1X
1Y
09
#400000
0!
0X
0Y
19
#405000
1!
1X
1Y
09
#410000
0!
0X
0Y
19
#415000
1!
1X
1Y
09
#420000
0!
0X
0Y
19
#425000
1!
1X
1Y
09
#430000
0!
0X
0Y
19
#435000
1!
1X
1Y
09
#440000
0!
0X
0Y
19
#445000
1!
1X
1Y
09
#450000
0!
0X
0Y
19
#455000
1!
1X
1Y
09
#460000
0!
0X
0Y
19
#465000
1!
1X
1Y
09
#470000
0!
0X
0Y
19
#475000
1!
1X
1Y
09
#480000
0!
0X
0Y
19
#485000
1!
1X
1Y
09
#490000
0!
0X
0Y
19
#495000
1!
1X
1Y
09
#500000
0!
0X
0Y
19
#505000
1!
1X
1Y
09
#510000
0!
0X
0Y
19
#515000
1!
1X
1Y
09
#520000
0!
0X
0Y
19
#525000
1!
1X
1Y
09
#530000
0!
0X
0Y
19
#535000
1!
1X
1Y
09
#540000
0!
0X
0Y
19
#545000
1!
1X
1Y
09
#550000
0!
0X
0Y
19
#555000
1!
1X
1Y
09
#560000
0!
0X
0Y
19
#565000
1!
1X
1Y
09
#570000
0!
0X
0Y
19
#575000
1!
1X
1Y
09
#580000
0!
0X
0Y
19
#585000
1!
1X
1Y
09
#590000
0!
0X
0Y
19
#595000
1!
1X
1Y
09
#600000
0!
0X
0Y
19
#605000
1!
1X
1Y
09
#610000
0!
0X
0Y
19
#615000
1!
1X
1Y
09
#620000
0!
0X
0Y
19
#625000
1!
1X
1Y
09
#630000
0!
0X
0Y
19
#635000
1!
1X
1Y
09
#640000
0!
0X
0Y
19
#645000
1!
1X
1Y
09
#650000
0!
0X
0Y
19
#655000
1!
1X
1Y
09
#660000
0!
0X
0Y
19
#665000
1!
1X
1Y
09
#670000
0!
0X
0Y
19
#675000
1!
1X
1Y
09
#680000
0!
0X
0Y
19
#685000
1!
1X
1Y
09
#690000
0!
0X
0Y
19
#695000
1!
1X
1Y
09
#700000
0!
0X
0Y
19
#705000
1!
1X
1Y
09
#710000
0!
0X
0Y
19
#715000
1!
1X
1Y
09
#720000
0!
0X
0Y
19
#725000
1!
1X
1Y
09
#730000
0!
0X
0Y
19
#735000
1!
1X
1Y
09
#740000
0!
0X
0Y
19
#745000
1!
1X
1Y
09
#750000
0!
0X
0Y
19
#755000
1!
1X
1Y
09
#760000
0!
0X
0Y
19
#765000
1!
1X
1Y
09
#770000
0!
0X
0Y
19
#775000
1!
1X
1Y
09
#780000
0!
0X
0Y
19
#785000
1!
1X
1Y
09
#790000
0!
0X
0Y
19
#795000
1!
1X
1Y
09
#800000
0!
0X
0Y
19
#805000
1!
1X
1Y
09
#810000
0!
0X
0Y
19
#815000
1!
1X
1Y
09
#820000
0!
0X
0Y
19
#825000
1!
1X
1Y
09
#830000
0!
0X
0Y
19
#835000
1!
1X
1Y
09
#840000
0!
0X
0Y
19
#845000
1!
1X
1Y
09
#850000
0!
0X
0Y
19
#855000
1!
1X
1Y
09
#860000
0!
0X
0Y
19
#865000
1!
1X
1Y
09
#870000
0!
0X
0Y
19
#875000
1!
1X
1Y
09
#880000
0!
0X
0Y
19
#885000
1!
1X
1Y
09
#890000
0!
0X
0Y
19
#895000
1!
1X
1Y
09
#900000
0!
0X
0Y
19
#905000
1!
1X
1Y
09
#910000
0!
0X
0Y
19
#915000
1!
1X
1Y
09
#920000
0!
0X
0Y
19
#925000
1!
1X
1Y
09
#930000
0!
0X
0Y
19
#935000
1!
1X
1Y
09
#940000
0!
0X
0Y
19
#945000
1!
1X
1Y
09
#950000
0!
0X
0Y
19
#955000
1!
1X
1Y
09
#960000
0!
0X
0Y
19
#965000
1!
1X
1Y
09
#970000
0!
0X
0Y
19
#975000
1!
1X
1Y
09
#980000
0!
0X
0Y
19
#985000
1!
1X
1Y
09
#990000
0!
0X
0Y
19
#995000
1!
1X
1Y
09
