WorkSpace/dualPort_ramSR/simulation/qsim/dualPort_ramSR.msim.vcd
$comment
	File created using the following command:
		vcd file dualPort_ramSR.msim.vcd -direction
$end
$date
	Wed Jul 07 14:55:27 2021
$end
$version
	ModelSim Version 10.1d
$end
$timescale
	1ps
$end
$scope module dualPort_ramSR_vlg_vec_tst $end
$var reg 3 ! addr_a [2:0] $end
$var reg 1 " ce_pa $end
$var reg 1 # clk $end
$var reg 8 $ data_a [7:0] $end
$var reg 1 % we_pa $end
$var wire 1 & q_a [7] $end
$var wire 1 ' q_a [6] $end
$var wire 1 ( q_a [5] $end
$var wire 1 ) q_a [4] $end
$var wire 1 * q_a [3] $end
$var wire 1 + q_a [2] $end
$var wire 1 , q_a [1] $end
$var wire 1 - q_a [0] $end
$var wire 1 . sampler $end
$scope module i1 $end
$var wire 1 / gnd $end
$var wire 1 0 vcc $end
$var wire 1 1 unknown $end
$var tri1 1 2 devclrn $end
$var tri1 1 3 devpor $end
$var tri1 1 4 devoe $end
$var wire 1 5 ram~49_q $end
$var wire 1 6 ram~17_q $end
$var wire 1 7 ram~42_q $end
$var wire 1 8 ram~18_q $end
$var wire 1 9 ram~43_q $end
$var wire 1 : ram~19_q $end
$var wire 1 ; ram~44_q $end
$var wire 1 < ram~21_q $end
$var wire 1 = ram~22_q $end
$var wire 1 > ram~23_q $end
$var wire 1 ? ce_pa~input_o $end
$var wire 1 @ ram~42feeder_combout $end
$var wire 1 A ram~18feeder_combout $end
$var wire 1 B ram~21feeder_combout $end
$var wire 1 C ram~23feeder_combout $end
$var wire 1 D q_a[0]~output_o $end
$var wire 1 E q_a[1]~output_o $end
$var wire 1 F q_a[2]~output_o $end
$var wire 1 G q_a[3]~output_o $end
$var wire 1 H q_a[4]~output_o $end
$var wire 1 I q_a[5]~output_o $end
$var wire 1 J q_a[6]~output_o $end
$var wire 1 K q_a[7]~output_o $end
$var wire 1 L clk~input_o $end
$var wire 1 M clk~inputclkctrl_outclk $end
$var wire 1 N data_a[0]~input_o $end
$var wire 1 O ram~121_combout $end
$var wire 1 P addr_a[2]~input_o $end
$var wire 1 Q we_pa~input_o $end
$var wire 1 R addr_a[0]~input_o $end
$var wire 1 S ram~104_combout $end
$var wire 1 T ram~113_combout $end
$var wire 1 U ram~24_q $end
$var wire 1 V ram~118_combout $end
$var wire 1 W ram~106_combout $end
$var wire 1 X ram~110_combout $end
$var wire 1 Y ram~16_q $end
$var wire 1 Z addr_a[1]~input_o $end
$var wire 1 [ ram~120_combout $end
$var wire 1 \ ram~112_combout $end
$var wire 1 ] ram~0_q $end
$var wire 1 ^ ram~119_combout $end
$var wire 1 _ ram~111_combout $end
$var wire 1 ` ram~8_q $end
$var wire 1 a ram~66_combout $end
$var wire 1 b ram~67_combout $end
$var wire 1 c ram~117_combout $end
$var wire 1 d ram~56feeder_combout $end
$var wire 1 e ram~109_combout $end
$var wire 1 f ram~56_q $end
$var wire 1 g ram~114_combout $end
$var wire 1 h ram~105_combout $end
$var wire 1 i ram~40_q $end
$var wire 1 j ram~116_combout $end
$var wire 1 k ram~108_combout $end
$var wire 1 l ram~32_q $end
$var wire 1 m ram~115_combout $end
$var wire 1 n ram~107_combout $end
$var wire 1 o ram~48_q $end
$var wire 1 p ram~64_combout $end
$var wire 1 q ram~65_combout $end
$var wire 1 r ram~68_combout $end
$var wire 1 s data_a[1]~input_o $end
$var wire 1 t ram~25_q $end
$var wire 1 u ram~1_q $end
$var wire 1 v ram~9_q $end
$var wire 1 w ram~71_combout $end
$var wire 1 x ram~72_combout $end
$var wire 1 y ram~41_q $end
$var wire 1 z ram~57_q $end
$var wire 1 { ram~33_q $end
$var wire 1 | ram~69_combout $end
$var wire 1 } ram~70_combout $end
$var wire 1 ~ ram~73_combout $end
$var wire 1 !! data_a[2]~input_o $end
$var wire 1 "! ram~26_q $end
$var wire 1 #! ram~2_q $end
$var wire 1 $! ram~10_q $end
$var wire 1 %! ram~76_combout $end
$var wire 1 &! ram~77_combout $end
$var wire 1 '! ram~58_q $end
$var wire 1 (! ram~34_q $end
$var wire 1 )! ram~50feeder_combout $end
$var wire 1 *! ram~50_q $end
$var wire 1 +! ram~74_combout $end
$var wire 1 ,! ram~75_combout $end
$var wire 1 -! ram~78_combout $end
$var wire 1 .! data_a[3]~input_o $end
$var wire 1 /! ram~27_q $end
$var wire 1 0! ram~3_q $end
$var wire 1 1! ram~11_q $end
$var wire 1 2! ram~81_combout $end
$var wire 1 3! ram~82_combout $end
$var wire 1 4! ram~59_q $end
$var wire 1 5! ram~35_q $end
$var wire 1 6! ram~51_q $end
$var wire 1 7! ram~79_combout $end
$var wire 1 8! ram~80_combout $end
$var wire 1 9! ram~83_combout $end
$var wire 1 :! data_a[4]~input_o $end
$var wire 1 ;! ram~20_q $end
$var wire 1 <! ram~28_q $end
$var wire 1 =! ram~4_q $end
$var wire 1 >! ram~12_q $end
$var wire 1 ?! ram~86_combout $end
$var wire 1 @! ram~87_combout $end
$var wire 1 A! ram~60_q $end
$var wire 1 B! ram~36_q $end
$var wire 1 C! ram~52_q $end
$var wire 1 D! ram~84_combout $end
$var wire 1 E! ram~85_combout $end
$var wire 1 F! ram~88_combout $end
$var wire 1 G! data_a[5]~input_o $end
$var wire 1 H! ram~29_q $end
$var wire 1 I! ram~5_q $end
$var wire 1 J! ram~13_q $end
$var wire 1 K! ram~91_combout $end
$var wire 1 L! ram~92_combout $end
$var wire 1 M! ram~45feeder_combout $end
$var wire 1 N! ram~45_q $end
$var wire 1 O! ram~61_q $end
$var wire 1 P! ram~37_q $end
$var wire 1 Q! ram~53feeder_combout $end
$var wire 1 R! ram~53_q $end
$var wire 1 S! ram~89_combout $end
$var wire 1 T! ram~90_combout $end
$var wire 1 U! ram~93_combout $end
$var wire 1 V! data_a[6]~input_o $end
$var wire 1 W! ram~30_q $end
$var wire 1 X! ram~6_q $end
$var wire 1 Y! ram~14_q $end
$var wire 1 Z! ram~96_combout $end
$var wire 1 [! ram~97_combout $end
$var wire 1 \! ram~46feeder_combout $end
$var wire 1 ]! ram~46_q $end
$var wire 1 ^! ram~62_q $end
$var wire 1 _! ram~54_q $end
$var wire 1 `! ram~38_q $end
$var wire 1 a! ram~94_combout $end
$var wire 1 b! ram~95_combout $end
$var wire 1 c! ram~98_combout $end
$var wire 1 d! data_a[7]~input_o $end
$var wire 1 e! ram~47feeder_combout $end
$var wire 1 f! ram~47_q $end
$var wire 1 g! ram~63_q $end
$var wire 1 h! ram~39_q $end
$var wire 1 i! ram~55feeder_combout $end
$var wire 1 j! ram~55_q $end
$var wire 1 k! ram~99_combout $end
$var wire 1 l! ram~100_combout $end
$var wire 1 m! ram~31_q $end
$var wire 1 n! ram~7_q $end
$var wire 1 o! ram~15_q $end
$var wire 1 p! ram~101_combout $end
$var wire 1 q! ram~102_combout $end
$var wire 1 r! ram~103_combout $end
$var wire 1 s! q_a_temp [7] $end
$var wire 1 t! q_a_temp [6] $end
$var wire 1 u! q_a_temp [5] $end
$var wire 1 v! q_a_temp [4] $end
$var wire 1 w! q_a_temp [3] $end
$var wire 1 x! q_a_temp [2] $end
$var wire 1 y! q_a_temp [1] $end
$var wire 1 z! q_a_temp [0] $end
$upscope $end
$upscope $end
$enddefinitions $end
#0
$dumpvars
b0 !
0"
0#
b0 $
0%
0-
0,
0+
0*
0)
0(
0'
0&
x.
0/
10
x1
12
13
14
05
06
07
08
09
0:
0;
0<
0=
0>
0?
0@
0A
0B
0C
0D
0E
0F
0G
0H
0I
0J
0K
0L
0M
0N
1O
0P
0Q
0R
0S
0T
0U
1V
0W
0X
0Y
0Z
1[
0\
0]
1^
0_
0`
1a
1b
1c
1d
0e
0f
1g
0h
0i
1j
0k
0l
1m
0n
0o
1p
1q
1r
0s
0t
0u
0v
0w
0x
0y
0z
0{
0|
0}
0~
0!!
0"!
0#!
0$!
0%!
0&!
0'!
0(!
0)!
0*!
0+!
0,!
0-!
0.!
0/!
00!
01!
02!
03!
04!
05!
06!
07!
08!
09!
0:!
0;!
0<!
0=!
0>!
0?!
0@!
0A!
0B!
0C!
0D!
0E!
0F!
0G!
0H!
0I!
0J!
0K!
0L!
0M!
0N!
0O!
0P!
0Q!
0R!
0S!
0T!
0U!
0V!
0W!
0X!
0Y!
0Z!
0[!
0\!
0]!
0^!
0_!
0`!
0a!
0b!
0c!
0d!
0e!
0f!
0g!
0h!
0i!
0j!
0k!
0l!
0m!
0n!
0o!
0p!
0q!
0r!
0z!
0y!
0x!
0w!
0v!
0u!
0t!
0s!
$end
#5000
1#
1L
1M
0.
1z!
1D
1-
#10000
0#
0L
0M
1.
#15000
1#
1L
1M
0.
#20000
0#
0L
0M
1.
#25000
1#
1L
1M
0.
#30000
0#
0L
0M
1.
#35000
1#
1L
1M
0.
#40000
1%
1"
b100 !
b101 !
b100 $
0#
1Q
1?
1!!
1R
1P
0L
0M
1.
1S
1)!
1A
1@
0p
1h
#45000
1#
1L
1M
0.
1i
17
0q
1,!
0r
1-!
#50000
b111 !
b110 $
b11 !
b10 $
0#
1s
0!!
1Z
0P
0L
0M
1.
0)!
0A
0@
1p!
1k!
1a!
1Z!
1S!
1K!
1D!
1?!
17!
12!
1+!
1%!
1|
1w
1p
0h
1T
0-!
1r
0,!
1q
#55000
1#
1L
1M
0.
1t
1U
1x
0b
1~
0r
#60000
b11 $
b10 !
b0 !
b1 $
0#
0R
0Z
1N
0s
0L
0M
1.
0p!
1l!
0k!
1b!
0a!
0Z!
1T!
0S!
0K!
1E!
0D!
0?!
18!
07!
02!
1,!
0+!
0%!
1}
0|
0w
1W
0S
1q!
1[!
1L!
1@!
13!
1&!
1b
1_
0T
0m
0j
0g
0c
0^
0[
0V
0O
0q!
1r!
0l!
1c!
0b!
0[!
1U!
0T!
0L!
1F!
0E!
0@!
19!
08!
03!
1-!
0,!
0&!
0}
0x
1\
0_
1r
0d
0r!
0c!
0U!
0F!
09!
0-!
0~
#65000
1#
1L
1M
0.
#70000
0%
0"
b0 $
0#
0Q
0?
0N
0L
0M
1.
0W
1m
1j
1g
1c
1^
1[
1V
1O
0\
1d
#75000
1#
1L
1M
0.
#80000
0#
0L
0M
1.
#85000
1#
1L
1M
0.
#90000
b100 !
b101 !
0#
1R
1P
0L
0M
1.
1,!
0p
1-!
0q
0r
#95000
1#
1L
1M
0.
1x!
0z!
1F
0D
1+
0-
#100000
b111 !
b11 !
0#
1Z
0P
0L
0M
1.
1p!
1k!
1a!
1Z!
1S!
1K!
1D!
1?!
17!
12!
1+!
1%!
1|
1w
1p
0b
0-!
1r
0,!
1x
1q
0r
1~
#105000
1#
1L
1M
0.
0x!
1y!
0F
1E
0+
1,
#110000
b10 !
b0 !
0#
0R
0Z
0L
0M
1.
0p!
1l!
0k!
1b!
0a!
0Z!
1T!
0S!
0K!
1E!
0D!
0?!
18!
07!
02!
1,!
0+!
0%!
1}
0|
0w
1q!
1[!
1L!
1@!
13!
1&!
1b
0q!
1r!
0l!
1c!
0b!
0[!
1U!
0T!
0L!
1F!
0E!
0@!
19!
08!
03!
1-!
0,!
0&!
0}
0x
1r
0r!
0c!
0U!
0F!
09!
0-!
0~
#115000
1#
1L
1M
0.
0y!
1z!
0E
1D
0,
1-
#120000
0#
0L
0M
1.
#125000
1#
1L
1M
0.
#130000
0#
0L
0M
1.
#135000
1#
1L
1M
0.
#140000
0#
0L
0M
1.
#145000
1#
1L
1M
0.
#150000
0#
0L
0M
1.
#155000
1#
1L
1M
0.
#160000
0#
0L
0M
1.
#165000
1#
1L
1M
0.
#170000
0#
0L
0M
1.
#175000
1#
1L
1M
0.
#180000
0#
0L
0M
1.
#185000
1#
1L
1M
0.
#190000
0#
0L
0M
1.
#195000
1#
1L
1M
0.
#200000
0#
0L
0M
1.
#205000
1#
1L
1M
0.
#210000
0#
0L
0M
1.
#215000
1#
1L
1M
0.
#220000
0#
0L
0M
1.
#225000
1#
1L
1M
0.
#230000
0#
0L
0M
1.
#235000
1#
1L
1M
0.
#240000
0#
0L
0M
1.
#245000
1#
1L
1M
0.
#250000
0#
0L
0M
1.
#255000
1#
1L
1M
0.
#260000
0#
0L
0M
1.
#265000
1#
1L
1M
0.
#270000
0#
0L
0M
1.
#275000
1#
1L
1M
0.
#280000
0#
0L
0M
1.
#285000
1#
1L
1M
0.
#290000
0#
0L
0M
1.
#295000
1#
1L
1M
0.
#300000
0#
0L
0M
1.
#305000
1#
1L
1M
0.
#310000
0#
0L
0M
1.
#315000
1#
1L
1M
0.
#320000
0#
0L
0M
1.
#325000
1#
1L
1M
0.
#330000
0#
0L
0M
1.
#335000
1#
1L
1M
0.
#340000
0#
0L
0M
1.
#345000
1#
1L
1M
0.
#350000
0#
0L
0M
1.
#355000
1#
1L
1M
0.
#360000
0#
0L
0M
1.
#365000
1#
1L
1M
0.
#370000
0#
0L
0M
1.
#375000
1#
1L
1M
0.
#380000
0#
0L
0M
1.
#385000
1#
1L
1M
0.
#390000
0#
0L
0M
1.
#395000
1#
1L
1M
0.
#400000
0#
0L
0M
1.
#405000
1#
1L
1M
0.
#410000
0#
0L
0M
1.
#415000
1#
1L
1M
0.
#420000
0#
0L
0M
1.
#425000
1#
1L
1M
0.
#430000
0#
0L
0M
1.
#435000
1#
1L
1M
0.
#440000
0#
0L
0M
1.
#445000
1#
1L
1M
0.
#450000
0#
0L
0M
1.
#455000
1#
1L
1M
0.
#460000
0#
0L
0M
1.
#465000
1#
1L
1M
0.
#470000
0#
0L
0M
1.
#475000
1#
1L
1M
0.
#480000
0#
0L
0M
1.
#485000
1#
1L
1M
0.
#490000
0#
0L
0M
1.
#495000
1#
1L
1M
0.
#500000
0#
0L
0M
1.
#505000
1#
1L
1M
0.
#510000
0#
0L
0M
1.
#515000
1#
1L
1M
0.
#520000
0#
0L
0M
1.
#525000
1#
1L
1M
0.
#530000
0#
0L
0M
1.
#535000
1#
1L
1M
0.
#540000
0#
0L
0M
1.
#545000
1#
1L
1M
0.
#550000
0#
0L
0M
1.
#555000
1#
1L
1M
0.
#560000
0#
0L
0M
1.
#565000
1#
1L
1M
0.
#570000
0#
0L
0M
1.
#575000
1#
1L
1M
0.
#580000
0#
0L
0M
1.
#585000
1#
1L
1M
0.
#590000
0#
0L
0M
1.
#595000
1#
1L
1M
0.
#600000
0#
0L
0M
1.
#605000
1#
1L
1M
0.
#610000
0#
0L
0M
1.
#615000
1#
1L
1M
0.
#620000
0#
0L
0M
1.
#625000
1#
1L
1M
0.
#630000
0#
0L
0M
1.
#635000
1#
1L
1M
0.
#640000
0#
0L
0M
1.
#645000
1#
1L
1M
0.
#650000
0#
0L
0M
1.
#655000
1#
1L
1M
0.
#660000
0#
0L
0M
1.
#665000
1#
1L
1M
0.
#670000
0#
0L
0M
1.
#675000
1#
1L
1M
0.
#680000
0#
0L
0M
1.
#685000
1#
1L
1M
0.
#690000
0#
0L
0M
1.
#695000
1#
1L
1M
0.
#700000
0#
0L
0M
1.
#705000
1#
1L
1M
0.
#710000
0#
0L
0M
1.
#715000
1#
1L
1M
0.
#720000
0#
0L
0M
1.
#725000
1#
1L
1M
0.
#730000
0#
0L
0M
1.
#735000
1#
1L
1M
0.
#740000
0#
0L
0M
1.
#745000
1#
1L
1M
0.
#750000
0#
0L
0M
1.
#755000
1#
1L
1M
0.
#760000
0#
0L
0M
1.
#765000
1#
1L
1M
0.
#770000
0#
0L
0M
1.
#775000
1#
1L
1M
0.
#780000
0#
0L
0M
1.
#785000
1#
1L
1M
0.
#790000
0#
0L
0M
1.
#795000
1#
1L
1M
0.
#800000
0#
0L
0M
1.
#805000
1#
1L
1M
0.
#810000
0#
0L
0M
1.
#815000
1#
1L
1M
0.
#820000
0#
0L
0M
1.
#825000
1#
1L
1M
0.
#830000
0#
0L
0M
1.
#835000
1#
1L
1M
0.
#840000
0#
0L
0M
1.
#845000
1#
1L
1M
0.
#850000
0#
0L
0M
1.
#855000
1#
1L
1M
0.
#860000
0#
0L
0M
1.
#865000
1#
1L
1M
0.
#870000
0#
0L
0M
1.
#875000
1#
1L
1M
0.
#880000
0#
0L
0M
1.
#885000
1#
1L
1M
0.
#890000
0#
0L
0M
1.
#895000
1#
1L
1M
0.
#900000
0#
0L
0M
1.
#905000
1#
1L
1M
0.
#910000
0#
0L
0M
1.
#915000
1#
1L
1M
0.
#920000
0#
0L
0M
1.
#925000
1#
1L
1M
0.
#930000
0#
0L
0M
1.
#935000
1#
1L
1M
0.
#940000
0#
0L
0M
1.
#945000
1#
1L
1M
0.
#950000
0#
0L
0M
1.
#955000
1#
1L
1M
0.
#960000
0#
0L
0M
1.
#965000
1#
1L
1M
0.
#970000
0#
0L
0M
1.
#975000
1#
1L
1M
0.
#980000
0#
0L
0M
1.
#985000
1#
1L
1M
0.
#990000
0#
0L
0M
1.
#995000
1#
1L
1M
0.
