WorkSpace/swapper/simulation/qsim/swapper.msim.vcd
$comment
	File created using the following command:
		vcd file swapper.msim.vcd -direction
$end
$date
	Wed Jul 14 21:12:42 2021
$end
$version
	ModelSim Version 10.1d
$end
$timescale
	1ps
$end
$scope module swapper_vlg_vec_tst $end
$var reg 8 ! a [7:0] $end
$var reg 8 " b [7:0] $end
$var reg 1 # clk $end
$var reg 1 $ rst $end
$var wire 1 % largest [7] $end
$var wire 1 & largest [6] $end
$var wire 1 ' largest [5] $end
$var wire 1 ( largest [4] $end
$var wire 1 ) largest [3] $end
$var wire 1 * largest [2] $end
$var wire 1 + largest [1] $end
$var wire 1 , largest [0] $end
$var wire 1 - smallest [7] $end
$var wire 1 . smallest [6] $end
$var wire 1 / smallest [5] $end
$var wire 1 0 smallest [4] $end
$var wire 1 1 smallest [3] $end
$var wire 1 2 smallest [2] $end
$var wire 1 3 smallest [1] $end
$var wire 1 4 smallest [0] $end
$var wire 1 5 sampler $end
$scope module i1 $end
$var wire 1 6 gnd $end
$var wire 1 7 vcc $end
$var wire 1 8 unknown $end
$var tri1 1 9 devclrn $end
$var tri1 1 : devpor $end
$var tri1 1 ; devoe $end
$var wire 1 < largest[0]~output_o $end
$var wire 1 = largest[1]~output_o $end
$var wire 1 > largest[2]~output_o $end
$var wire 1 ? largest[3]~output_o $end
$var wire 1 @ largest[4]~output_o $end
$var wire 1 A largest[5]~output_o $end
$var wire 1 B largest[6]~output_o $end
$var wire 1 C largest[7]~output_o $end
$var wire 1 D smallest[0]~output_o $end
$var wire 1 E smallest[1]~output_o $end
$var wire 1 F smallest[2]~output_o $end
$var wire 1 G smallest[3]~output_o $end
$var wire 1 H smallest[4]~output_o $end
$var wire 1 I smallest[5]~output_o $end
$var wire 1 J smallest[6]~output_o $end
$var wire 1 K smallest[7]~output_o $end
$var wire 1 L clk~input_o $end
$var wire 1 M clk~inputclkctrl_outclk $end
$var wire 1 N b[0]~input_o $end
$var wire 1 O largest[0]~8_combout $end
$var wire 1 P rst~input_o $end
$var wire 1 Q rst~inputclkctrl_outclk $end
$var wire 1 R a[7]~input_o $end
$var wire 1 S a[6]~input_o $end
$var wire 1 T b[5]~input_o $end
$var wire 1 U a[4]~input_o $end
$var wire 1 V a[3]~input_o $end
$var wire 1 W a[2]~input_o $end
$var wire 1 X a[1]~input_o $end
$var wire 1 Y largest[0]~9 $end
$var wire 1 Z largest[1]~11 $end
$var wire 1 [ largest[2]~13 $end
$var wire 1 \ largest[3]~15 $end
$var wire 1 ] largest[4]~17 $end
$var wire 1 ^ largest[5]~19 $end
$var wire 1 _ largest[6]~21 $end
$var wire 1 ` largest[7]~23 $end
$var wire 1 a LessThan0~0_combout $end
$var wire 1 b largest[0]~reg0_q $end
$var wire 1 c largest[1]~10_combout $end
$var wire 1 d b[1]~input_o $end
$var wire 1 e largest[1]~reg0_q $end
$var wire 1 f largest[2]~12_combout $end
$var wire 1 g b[2]~input_o $end
$var wire 1 h largest[2]~reg0_q $end
$var wire 1 i largest[3]~14_combout $end
$var wire 1 j b[3]~input_o $end
$var wire 1 k largest[3]~reg0_q $end
$var wire 1 l largest[4]~16_combout $end
$var wire 1 m b[4]~input_o $end
$var wire 1 n largest[4]~reg0_q $end
$var wire 1 o largest[5]~18_combout $end
$var wire 1 p largest[5]~reg0_q $end
$var wire 1 q largest[6]~20_combout $end
$var wire 1 r b[6]~input_o $end
$var wire 1 s largest[6]~reg0_q $end
$var wire 1 t largest[7]~22_combout $end
$var wire 1 u b[7]~input_o $end
$var wire 1 v largest[7]~reg0_q $end
$var wire 1 w a[0]~input_o $end
$var wire 1 x smallest~0_combout $end
$var wire 1 y smallest[0]~reg0_q $end
$var wire 1 z smallest~1_combout $end
$var wire 1 { smallest[1]~reg0_q $end
$var wire 1 | smallest~2_combout $end
$var wire 1 } smallest[2]~reg0_q $end
$var wire 1 ~ smallest~3_combout $end
$var wire 1 !! smallest[3]~reg0_q $end
$var wire 1 "! smallest~4_combout $end
$var wire 1 #! smallest[4]~reg0_q $end
$var wire 1 $! a[5]~input_o $end
$var wire 1 %! smallest~5_combout $end
$var wire 1 &! smallest[5]~reg0_q $end
$var wire 1 '! smallest~6_combout $end
$var wire 1 (! smallest[6]~reg0_q $end
$var wire 1 )! smallest~7_combout $end
$var wire 1 *! smallest[7]~reg0_q $end
$upscope $end
$upscope $end
$enddefinitions $end
#0
$dumpvars
b0 !
b0 "
0#
1$
0,
0+
0*
0)
0(
0'
0&
0%
04
03
02
01
00
0/
0.
0-
x5
06
17
x8
19
1:
1;
0<
0=
0>
0?
0@
0A
0B
0C
0D
0E
0F
0G
0H
0I
0J
0K
0L
0M
0N
0O
1P
1Q
0R
0S
0T
0U
0V
0W
0X
0Y
1Z
0[
1\
0]
1^
0_
1`
0a
0b
0c
0d
0e
0f
0g
0h
0i
0j
0k
0l
0m
0n
0o
0p
0q
0r
0s
0t
0u
0v
0w
0x
0y
0z
0{
0|
0}
0~
0!!
0"!
0#!
0$!
0%!
0&!
0'!
0(!
0)!
0*!
$end
#5000
1#
1L
1M
05
#10000
0#
0L
0M
15
#15000
1#
1L
1M
05
#20000
0#
0L
0M
15
#25000
1#
1L
1M
05
#30000
0$
0#
0P
0L
0Q
0M
15
#35000
1#
1L
1M
05
#40000
0#
0L
0M
15
#45000
1#
1L
1M
05
#50000
1$
0#
1P
0L
1Q
0M
15
#55000
1#
1L
1M
05
#60000
0#
0L
0M
15
#65000
1#
1L
1M
05
#70000
0#
0L
0M
15
#75000
1#
1L
1M
05
#80000
b1000 !
b1010 !
0#
1X
1V
0L
0M
15
1c
1i
#85000
1#
1L
1M
05
1k
1e
1?
1=
1)
1+
#90000
0#
0L
0M
15
#95000
1#
1L
1M
05
#100000
0#
0L
0M
15
#105000
1#
1L
1M
05
#110000
0#
0L
0M
15
#115000
1#
1L
1M
05
#120000
0#
0L
0M
15
#125000
1#
1L
1M
05
#130000
b10000 "
b10100 "
0#
1g
1m
0L
0M
15
1|
1[
1"!
1]
0^
1_
0`
1a
0"!
1~
0|
1z
#135000
1#
1L
1M
05
1!!
1{
1n
0k
1h
0e
1G
1E
1@
0?
1>
0=
11
13
1(
0)
1*
0+
#140000
0#
0L
0M
15
#145000
1#
1L
1M
05
#150000
0#
0L
0M
15
#155000
1#
1L
1M
05
#160000
0#
0L
0M
15
#165000
1#
1L
1M
05
#170000
0#
0L
0M
15
#175000
1#
1L
1M
05
#180000
0#
0L
0M
15
#185000
1#
1L
1M
05
#190000
b101010 !
b11100 "
b11110 "
b101000 !
0#
1d
1j
0X
1$!
0L
0M
15
0z
0Z
0c
0\
1%!
1^
1o
0_
1`
0a
0%!
1"!
1|
1z
#195000
1#
1L
1M
05
1#!
1}
1p
0n
1k
0h
1H
1F
1A
0@
1?
0>
10
12
1'
0(
1)
0*
#200000
0#
0L
0M
15
#205000
1#
1L
1M
05
#210000
0#
0L
0M
15
#215000
1#
1L
1M
05
#220000
0#
0L
0M
15
#225000
1#
1L
1M
05
#230000
0#
0L
0M
15
#235000
1#
1L
1M
05
#240000
0#
0L
0M
15
#245000
1#
1L
1M
05
#250000
0#
0L
0M
15
#255000
1#
1L
1M
05
#260000
0#
0L
0M
15
#265000
1#
1L
1M
05
#270000
b111000 !
b111100 !
b111110 "
b111100 "
0#
0d
1T
1W
1U
0L
0M
15
0z
1Z
1%!
0^
1f
1l
0[
1_
1\
0`
0]
1a
1^
0_
1`
0a
#275000
1#
1L
1M
05
1&!
0{
1n
1h
1I
0E
1@
1>
1/
03
1(
1*
#280000
0#
0L
0M
15
#285000
1#
1L
1M
05
#290000
0#
0L
0M
15
#295000
1#
1L
1M
05
#300000
0#
0L
0M
15
#305000
1#
1L
1M
05
#310000
0#
0L
0M
15
#315000
1#
1L
1M
05
#320000
0#
0L
0M
15
#325000
1#
1L
1M
05
#330000
0#
0L
0M
15
#335000
1#
1L
1M
05
#340000
0#
0L
0M
15
#345000
1#
1L
1M
05
#350000
b110100 !
b101100 "
b101000 "
b10100 !
b100000 "
b100 !
b0 !
b0 "
0#
0g
0j
0m
0T
0W
0V
0U
0$!
0L
0M
15
0|
0f
0~
0i
0"!
0l
0%!
0o
#355000
1#
1L
1M
05
0&!
0#!
0!!
0}
0p
0n
0k
0h
0I
0H
0G
0F
0A
0@
0?
0>
0/
00
01
02
0'
0(
0)
0*
#360000
0#
0L
0M
15
#365000
1#
1L
1M
05
#370000
0#
0L
0M
15
#375000
1#
1L
1M
05
#380000
0#
0L
0M
15
#385000
1#
1L
1M
05
#390000
0#
0L
0M
15
#395000
1#
1L
1M
05
#400000
0#
0L
0M
15
#405000
1#
1L
1M
05
#410000
0#
0L
0M
15
#415000
1#
1L
1M
05
#420000
0#
0L
0M
15
#425000
1#
1L
1M
05
#430000
0#
0L
0M
15
#435000
1#
1L
1M
05
#440000
0#
0L
0M
15
#445000
1#
1L
1M
05
#450000
0#
0L
0M
15
#455000
1#
1L
1M
05
#460000
0#
0L
0M
15
#465000
1#
1L
1M
05
#470000
0#
0L
0M
15
#475000
1#
1L
1M
05
#480000
0#
0L
0M
15
#485000
1#
1L
1M
05
#490000
0#
0L
0M
15
#495000
1#
1L
1M
05
#500000
0#
0L
0M
15
#505000
1#
1L
1M
05
#510000
0#
0L
0M
15
#515000
1#
1L
1M
05
#520000
0#
0L
0M
15
#525000
1#
1L
1M
05
#530000
0#
0L
0M
15
#535000
1#
1L
1M
05
#540000
0#
0L
0M
15
#545000
1#
1L
1M
05
#550000
0#
0L
0M
15
#555000
1#
1L
1M
05
#560000
0#
0L
0M
15
#565000
1#
1L
1M
05
#570000
0#
0L
0M
15
#575000
1#
1L
1M
05
#580000
0#
0L
0M
15
#585000
1#
1L
1M
05
#590000
0#
0L
0M
15
#595000
1#
1L
1M
05
#600000
0#
0L
0M
15
#605000
1#
1L
1M
05
#610000
0#
0L
0M
15
#615000
1#
1L
1M
05
#620000
0#
0L
0M
15
#625000
1#
1L
1M
05
#630000
0#
0L
0M
15
#635000
1#
1L
1M
05
#640000
0#
0L
0M
15
#645000
1#
1L
1M
05
#650000
0#
0L
0M
15
#655000
1#
1L
1M
05
#660000
0#
0L
0M
15
#665000
1#
1L
1M
05
#670000
0#
0L
0M
15
#675000
1#
1L
1M
05
#680000
0#
0L
0M
15
#685000
1#
1L
1M
05
#690000
0#
0L
0M
15
#695000
1#
1L
1M
05
#700000
0#
0L
0M
15
#705000
1#
1L
1M
05
#710000
0#
0L
0M
15
#715000
1#
1L
1M
05
#720000
0#
0L
0M
15
#725000
1#
1L
1M
05
#730000
0#
0L
0M
15
#735000
1#
1L
1M
05
#740000
0#
0L
0M
15
#745000
1#
1L
1M
05
#750000
0#
0L
0M
15
#755000
1#
1L
1M
05
#760000
0#
0L
0M
15
#765000
1#
1L
1M
05
#770000
0#
0L
0M
15
#775000
1#
1L
1M
05
#780000
0#
0L
0M
15
#785000
1#
1L
1M
05
#790000
0#
0L
0M
15
#795000
1#
1L
1M
05
#800000
0#
0L
0M
15
#805000
1#
1L
1M
05
#810000
0#
0L
0M
15
#815000
1#
1L
1M
05
#820000
0#
0L
0M
15
#825000
1#
1L
1M
05
#830000
0#
0L
0M
15
#835000
1#
1L
1M
05
#840000
0#
0L
0M
15
#845000
1#
1L
1M
05
#850000
0#
0L
0M
15
#855000
1#
1L
1M
05
#860000
0#
0L
0M
15
#865000
1#
1L
1M
05
#870000
0#
0L
0M
15
#875000
1#
1L
1M
05
#880000
0#
0L
0M
15
#885000
1#
1L
1M
05
#890000
0#
0L
0M
15
#895000
1#
1L
1M
05
#900000
0#
0L
0M
15
#905000
1#
1L
1M
05
#910000
0#
0L
0M
15
#915000
1#
1L
1M
05
#920000
0#
0L
0M
15
#925000
1#
1L
1M
05
#930000
0$
0#
0P
0L
0Q
0M
15
#935000
1#
1L
1M
05
#940000
0#
0L
0M
15
#945000
1#
1L
1M
05
#950000
0#
0L
0M
15
#955000
1#
1L
1M
05
#960000
0#
0L
0M
15
#965000
1#
1L
1M
05
#970000
0#
0L
0M
15
#975000
1#
1L
1M
05
#980000
0#
0L
0M
15
#985000
1#
1L
1M
05
#990000
0#
0L
0M
15
#995000
1#
1L
1M
05
