WorkSpace/shift_R_register/simulation/qsim/shift_R_register.msim.vcd
$comment
	File created using the following command:
		vcd file shift_R_register.msim.vcd -direction
$end
$date
	Fri Jun 04 18:02:26 2021
$end
$version
	ModelSim Version 10.1d
$end
$timescale
	1ps
$end
$scope module shift_R_register_vlg_vec_tst $end
$var reg 1 ! clk $end
$var reg 1 " din $end
$var reg 1 # reset $end
$var wire 1 $ out [7] $end
$var wire 1 % out [6] $end
$var wire 1 & out [5] $end
$var wire 1 ' out [4] $end
$var wire 1 ( out [3] $end
$var wire 1 ) out [2] $end
$var wire 1 * out [1] $end
$var wire 1 + out [0] $end
$var wire 1 , sampler $end
$scope module i1 $end
$var wire 1 - gnd $end
$var wire 1 . vcc $end
$var wire 1 / unknown $end
$var tri1 1 0 devclrn $end
$var tri1 1 1 devpor $end
$var tri1 1 2 devoe $end
$var wire 1 3 clk~combout $end
$var wire 1 4 clk~clkctrl_outclk $end
$var wire 1 5 din~combout $end
$var wire 1 6 out[7]~reg0feeder_combout $end
$var wire 1 7 reset~combout $end
$var wire 1 8 reset~clkctrl_outclk $end
$var wire 1 9 out[7]~reg0_regout $end
$var wire 1 : out[6]~reg0feeder_combout $end
$var wire 1 ; out[6]~reg0_regout $end
$var wire 1 < out[5]~reg0feeder_combout $end
$var wire 1 = out[5]~reg0_regout $end
$var wire 1 > out[4]~reg0feeder_combout $end
$var wire 1 ? out[4]~reg0_regout $end
$var wire 1 @ out[3]~reg0feeder_combout $end
$var wire 1 A out[3]~reg0_regout $end
$var wire 1 B out[2]~reg0feeder_combout $end
$var wire 1 C out[2]~reg0_regout $end
$var wire 1 D out[1]~reg0feeder_combout $end
$var wire 1 E out[1]~reg0_regout $end
$var wire 1 F out[0]~reg0feeder_combout $end
$var wire 1 G out[0]~reg0_regout $end
$upscope $end
$upscope $end
$enddefinitions $end
#0
$dumpvars
0!
0"
0#
0+
0*
0)
0(
0'
0&
0%
0$
x,
0-
1.
x/
10
11
12
03
04
05
06
07
08
09
0:
0;
0<
0=
0>
0?
0@
0A
0B
0C
0D
0E
0F
0G
$end
#5000
1!
13
14
0,
#10000
0!
03
04
1,
#15000
1!
13
14
0,
#20000
0!
03
04
1,
#25000
1!
13
14
0,
#30000
0!
03
04
1,
#35000
1!
13
14
0,
#40000
0!
03
04
1,
#45000
1!
13
14
0,
#50000
0!
03
04
1,
#55000
1!
13
14
0,
#60000
0!
03
04
1,
#65000
1!
13
14
0,
#70000
0!
03
04
1,
#75000
1!
13
14
0,
#80000
0!
03
04
1,
#85000
1!
13
14
0,
#90000
0!
03
04
1,
#95000
1!
13
14
0,
#100000
0!
03
04
1,
#105000
1!
13
14
0,
#110000
0!
03
04
1,
#115000
1!
13
14
0,
#120000
0!
03
04
1,
#125000
1!
13
14
0,
#130000
0!
03
04
1,
#135000
1!
13
14
0,
#140000
0!
03
04
1,
#145000
1!
13
14
0,
#150000
0!
03
04
1,
#155000
1!
13
14
0,
#160000
0!
03
04
1,
#165000
1!
13
14
0,
#170000
0!
03
04
1,
#175000
1!
13
14
0,
#180000
0!
03
04
1,
#185000
1!
13
14
0,
#190000
0!
03
04
1,
#195000
1!
13
14
0,
#200000
0!
03
04
1,
#205000
1!
13
14
0,
#210000
0!
03
04
1,
#215000
1!
13
14
0,
#220000
0!
03
04
1,
#225000
1!
13
14
0,
#230000
0!
03
04
1,
#235000
1!
13
14
0,
#240000
1"
1#
0!
15
17
03
04
18
1,
16
#245000
1!
13
14
0,
19
1:
1$
#250000
0"
0!
05
03
04
1,
06
#255000
1!
13
14
0,
1;
09
1<
0:
1%
0$
#260000
1"
0!
15
03
04
1,
16
#265000
1!
13
14
0,
1=
0;
19
1>
0<
1:
1&
0%
1$
#270000
0"
0!
05
03
04
1,
06
#275000
1!
13
14
0,
1?
0=
1;
09
1@
0>
1<
0:
1'
0&
1%
0$
#280000
0!
03
04
1,
#285000
1!
13
14
0,
1A
0?
1=
0;
1B
0@
1>
0<
1(
0'
1&
0%
#290000
0!
03
04
1,
#295000
1!
13
14
0,
1C
0A
1?
0=
1D
0B
1@
0>
1)
0(
1'
0&
#300000
0!
03
04
1,
#305000
1!
13
14
0,
1E
0C
1A
0?
1F
0D
1B
0@
1*
0)
1(
0'
#310000
0!
03
04
1,
#315000
1!
13
14
0,
1G
0E
1C
0A
0F
1D
0B
1+
0*
1)
0(
#320000
0!
03
04
1,
#325000
1!
13
14
0,
0G
1E
0C
1F
0D
0+
1*
0)
#330000
0!
03
04
1,
#335000
1!
13
14
0,
1G
0E
0F
1+
0*
#340000
0!
03
04
1,
#345000
1!
13
14
0,
0G
0+
#350000
0!
03
04
1,
#355000
1!
13
14
0,
#360000
0!
03
04
1,
#365000
1!
13
14
0,
#370000
0!
03
04
1,
#375000
1!
13
14
0,
#380000
0!
03
04
1,
#385000
1!
13
14
0,
#390000
0!
03
04
1,
#395000
1!
13
14
0,
#400000
0!
03
04
1,
#405000
1!
13
14
0,
#410000
0!
03
04
1,
#415000
1!
13
14
0,
#420000
0!
03
04
1,
#425000
1!
13
14
0,
#430000
0!
03
04
1,
#435000
1!
13
14
0,
#440000
0!
03
04
1,
#445000
1!
13
14
0,
#450000
0!
03
04
1,
#455000
1!
13
14
0,
#460000
0!
03
04
1,
#465000
1!
13
14
0,
#470000
0!
03
04
1,
#475000
1!
13
14
0,
#480000
0#
0!
07
03
04
08
1,
#485000
1!
13
14
0,
#490000
0!
03
04
1,
#495000
1!
13
14
0,
#500000
0!
03
04
1,
#505000
1!
13
14
0,
#510000
0!
03
04
1,
#515000
1!
13
14
0,
#520000
0!
03
04
1,
#525000
1!
13
14
0,
#530000
0!
03
04
1,
#535000
1!
13
14
0,
#540000
0!
03
04
1,
#545000
1!
13
14
0,
#550000
0!
03
04
1,
#555000
1!
13
14
0,
#560000
0!
03
04
1,
#565000
1!
13
14
0,
#570000
0!
03
04
1,
#575000
1!
13
14
0,
#580000
0!
03
04
1,
#585000
1!
13
14
0,
#590000
0!
03
04
1,
#595000
1!
13
14
0,
#600000
0!
03
04
1,
#605000
1!
13
14
0,
#610000
0!
03
04
1,
#615000
1!
13
14
0,
#620000
0!
03
04
1,
#625000
1!
13
14
0,
#630000
0!
03
04
1,
#635000
1!
13
14
0,
#640000
0!
03
04
1,
#645000
1!
13
14
0,
#650000
0!
03
04
1,
#655000
1!
13
14
0,
#660000
0!
03
04
1,
#665000
1!
13
14
0,
#670000
0!
03
04
1,
#675000
1!
13
14
0,
#680000
0!
03
04
1,
#685000
1!
13
14
0,
#690000
0!
03
04
1,
#695000
1!
13
14
0,
#700000
0!
03
04
1,
#705000
1!
13
14
0,
#710000
0!
03
04
1,
#715000
1!
13
14
0,
#720000
0!
03
04
1,
#725000
1!
13
14
0,
#730000
0!
03
04
1,
#735000
1!
13
14
0,
#740000
0!
03
04
1,
#745000
1!
13
14
0,
#750000
0!
03
04
1,
#755000
1!
13
14
0,
#760000
0!
03
04
1,
#765000
1!
13
14
0,
#770000
0!
03
04
1,
#775000
1!
13
14
0,
#780000
0!
03
04
1,
#785000
1!
13
14
0,
#790000
0!
03
04
1,
#795000
1!
13
14
0,
#800000
0!
03
04
1,
#805000
1!
13
14
0,
#810000
0!
03
04
1,
#815000
1!
13
14
0,
#820000
0!
03
04
1,
#825000
1!
13
14
0,
#830000
0!
03
04
1,
#835000
1!
13
14
0,
#840000
0!
03
04
1,
#845000
1!
13
14
0,
#850000
0!
03
04
1,
#855000
1!
13
14
0,
#860000
0!
03
04
1,
#865000
1!
13
14
0,
#870000
0!
03
04
1,
#875000
1!
13
14
0,
#880000
0!
03
04
1,
#885000
1!
13
14
0,
#890000
0!
03
04
1,
#895000
1!
13
14
0,
#900000
0!
03
04
1,
#905000
1!
13
14
0,
#910000
0!
03
04
1,
#915000
1!
13
14
0,
#920000
0!
03
04
1,
#925000
1!
13
14
0,
#930000
0!
03
04
1,
#935000
1!
13
14
0,
#940000
0!
03
04
1,
#945000
1!
13
14
0,
#950000
0!
03
04
1,
#955000
1!
13
14
0,
#960000
0!
03
04
1,
#965000
1!
13
14
0,
#970000
0!
03
04
1,
#975000
1!
13
14
0,
#980000
0!
03
04
1,
#985000
1!
13
14
0,
#990000
0!
03
04
1,
#995000
1!
13
14
0,
