WorkSpace/modN_counter/simulation/qsim/modN_counter.msim.vcd
$comment
	File created using the following command:
		vcd file modN_counter.msim.vcd -direction
$end
$date
	Sun May 30 22:52:35 2021
$end
$version
	ModelSim Version 10.1d
$end
$timescale
	1ps
$end
$scope module modN_counter_vlg_vec_tst $end
$var reg 1 ! clk $end
$var reg 1 " en $end
$var reg 1 # reset $end
$var wire 1 $ done $end
$var wire 1 % out [5] $end
$var wire 1 & out [4] $end
$var wire 1 ' out [3] $end
$var wire 1 ( out [2] $end
$var wire 1 ) out [1] $end
$var wire 1 * out [0] $end
$var wire 1 + sampler $end
$scope module i1 $end
$var wire 1 , gnd $end
$var wire 1 - vcc $end
$var wire 1 . unknown $end
$var tri1 1 / devclrn $end
$var tri1 1 0 devpor $end
$var tri1 1 1 devoe $end
$var wire 1 2 Add0~5_combout $end
$var wire 1 3 Add0~9_combout $end
$var wire 1 4 clk~combout $end
$var wire 1 5 clk~clkctrl_outclk $end
$var wire 1 6 en~combout $end
$var wire 1 7 Add0~0_combout $end
$var wire 1 8 out[1]~2_combout $end
$var wire 1 9 Add0~1 $end
$var wire 1 : Add0~2_combout $end
$var wire 1 ; out[1]~3_combout $end
$var wire 1 < reset~combout $end
$var wire 1 = reset~clkctrl_outclk $end
$var wire 1 > out[1]~reg0_regout $end
$var wire 1 ? out[0]~0_combout $end
$var wire 1 @ out[0]~1_combout $end
$var wire 1 A out[0]~reg0_regout $end
$var wire 1 B out[4]~6_combout $end
$var wire 1 C out[4]~reg0_regout $end
$var wire 1 D Add0~3 $end
$var wire 1 E Add0~6 $end
$var wire 1 F Add0~8 $end
$var wire 1 G Add0~10 $end
$var wire 1 H Add0~11_combout $end
$var wire 1 I out[5]~7_combout $end
$var wire 1 J out[5]~reg0_regout $end
$var wire 1 K always0~0_combout $end
$var wire 1 L Add0~4_combout $end
$var wire 1 M out[2]~4_combout $end
$var wire 1 N out[2]~reg0_regout $end
$var wire 1 O Add0~7_combout $end
$var wire 1 P out[3]~5_combout $end
$var wire 1 Q out[3]~reg0_regout $end
$var wire 1 R always0~1_combout $end
$var wire 1 S done~0_combout $end
$var wire 1 T done~reg0_regout $end
$upscope $end
$upscope $end
$enddefinitions $end
#0
$dumpvars
0!
0"
0#
0$
0*
0)
0(
0'
0&
0%
x+
0,
1-
x.
1/
10
11
02
03
04
05
06
17
08
09
0:
0;
0<
0=
0>
0?
0@
0A
0B
0C
1D
0E
1F
0G
0H
0I
0J
0K
0L
0M
0N
0O
0P
0Q
0R
0S
0T
$end
#5000
1!
14
15
0+
#10000
0!
04
05
1+
#15000
1!
14
15
0+
#20000
0!
04
05
1+
#25000
1!
14
15
0+
#30000
0!
04
05
1+
#35000
1!
14
15
0+
#40000
0!
04
05
1+
#45000
1!
14
15
0+
#50000
0!
04
05
1+
#55000
1!
14
15
0+
#60000
0!
04
05
1+
#65000
1!
14
15
0+
#70000
0!
04
05
1+
#75000
1!
14
15
0+
#80000
0!
04
05
1+
#85000
1!
14
15
0+
#90000
0!
04
05
1+
#95000
1!
14
15
0+
#100000
0!
04
05
1+
#105000
1!
14
15
0+
#110000
0!
04
05
1+
#115000
1!
14
15
0+
#120000
0!
04
05
1+
#125000
1!
14
15
0+
#130000
0!
04
05
1+
#135000
1!
14
15
0+
#140000
0!
04
05
1+
#145000
1!
14
15
0+
#150000
0!
04
05
1+
#155000
1!
14
15
0+
#160000
1"
1#
0!
16
1<
04
05
1=
1+
1L
1@
1?
18
#165000
1!
14
15
0+
1A
19
07
1*
1:
0@
1;
#170000
0!
04
05
1+
#175000
1!
14
15
0+
0A
1>
09
17
0D
0:
0*
1)
1D
1:
1@
12
0;
02
1;
1M
0M
#180000
0!
04
05
1+
#185000
1!
14
15
0+
1A
1R
0?
08
19
07
1*
0@
0D
0:
12
0;
1M
#190000
0!
04
05
1+
#195000
1!
14
15
0+
1N
0A
0>
1E
02
0R
1?
18
09
17
1D
1:
1(
0*
0)
1O
0M
1@
1;
0:
0E
12
1P
0;
0O
1M
0P
#200000
0!
04
05
1+
#205000
1!
14
15
0+
1A
19
07
1*
1:
0@
1;
#210000
0!
04
05
1+
#215000
1!
14
15
0+
0A
1>
09
17
0D
0:
0*
1)
1D
1:
1@
1E
02
0;
0E
12
1;
1O
0M
0O
1M
1P
0P
#220000
0!
04
05
1+
#225000
1!
14
15
0+
1A
1R
0?
08
19
07
1*
0@
0D
0:
1E
02
0;
1O
0M
1P
#230000
0!
04
05
1+
#235000
1!
14
15
0+
1Q
0N
0A
0>
0F
0O
0E
12
0R
1?
18
09
17
1D
1:
1'
0(
0*
0)
13
0P
1F
1O
1M
1@
1;
0:
02
1B
03
1P
0;
0M
0B
#240000
0!
04
05
1+
#245000
1!
14
15
0+
1A
19
07
1*
1:
0@
1;
#250000
0!
04
05
1+
#255000
1!
14
15
0+
0A
1>
09
17
0D
0:
0*
1)
1D
1:
1@
12
0;
02
1;
1M
0M
#260000
0!
04
05
1+
#265000
1!
14
15
0+
1A
1R
0?
08
19
07
1*
0@
0D
0:
12
0;
1M
#270000
0!
04
05
1+
#275000
1!
14
15
0+
1N
0A
0>
1E
02
0R
1?
18
09
17
1D
1:
1(
0*
0)
0F
0O
0M
1@
1;
0:
0E
12
13
0P
0;
1F
1O
1M
1B
03
1P
0B
#280000
0!
04
05
1+
#285000
1!
14
15
0+
1A
19
07
1*
1:
0@
1;
#290000
0!
04
05
1+
#295000
1!
14
15
0+
0A
1>
09
17
0D
0:
0*
1)
1D
1:
1@
1E
02
0;
0E
12
1;
0F
0O
0M
1F
1O
1M
13
0P
03
1P
1B
0B
#300000
0!
04
05
1+
#305000
1!
14
15
0+
1A
1R
0?
08
19
07
1*
0@
0D
0:
1E
02
0;
0F
0O
0M
13
0P
1B
#310000
0!
04
05
1+
#315000
1!
14
15
0+
0Q
0N
1C
0A
0>
1F
1O
0E
12
1G
03
0R
1?
18
09
17
1D
1:
0'
0(
1&
0*
0)
0G
13
1P
0O
1M
1H
0B
1@
1;
0:
02
0H
1B
0P
1I
0;
0M
0I
#320000
0!
04
05
1+
#325000
1!
14
15
0+
1A
19
07
1*
1:
0@
1;
#330000
0!
04
05
1+
#335000
1!
14
15
0+
0A
1>
09
17
0D
0:
0*
1)
1D
1:
1@
12
0;
02
1;
1M
0M
#340000
0!
04
05
1+
#345000
1!
14
15
0+
1A
1R
0?
08
19
07
1*
0@
0D
0:
12
0;
1M
#350000
0!
04
05
1+
#355000
1!
14
15
0+
1N
0A
0>
1E
02
0R
1?
18
09
17
1D
1:
1(
0*
0)
1O
0M
1@
1;
0:
0E
12
1P
0;
0O
1M
0P
#360000
0!
04
05
1+
#365000
1!
14
15
0+
1A
19
07
1*
1:
0@
1;
#370000
0!
04
05
1+
#375000
1!
14
15
0+
0A
1>
09
17
0D
0:
0*
1)
1D
1:
1@
1E
02
0;
0E
12
1;
1O
0M
0O
1M
1P
0P
#380000
0!
04
05
1+
#385000
1!
14
15
0+
1A
1R
0?
08
19
07
1*
0@
0D
0:
1E
02
0;
1O
0M
1P
#390000
0!
04
05
1+
#395000
1!
14
15
0+
1Q
0N
0A
0>
0F
0O
0E
12
0R
1?
18
09
17
1D
1:
1'
0(
0*
0)
1G
03
0P
1F
1O
1M
1@
1;
0:
02
1H
0B
0G
13
1P
0;
0M
1I
0H
1B
0I
#400000
0!
04
05
1+
#405000
1!
14
15
0+
1A
19
07
1*
1:
0@
1;
#410000
0!
04
05
1+
#415000
1!
14
15
0+
0A
1>
09
17
0D
0:
0*
1)
1D
1:
1@
12
0;
02
1;
1M
0M
#420000
0!
04
05
1+
#425000
1!
14
15
0+
1A
1R
0?
08
19
07
1*
0@
0D
0:
12
0;
1M
#430000
0!
04
05
1+
#435000
1!
14
15
0+
1N
0A
0>
1E
02
0R
1?
18
09
17
1D
1:
1(
0*
0)
0F
0O
0M
1@
1;
0:
0E
12
1G
03
0P
0;
1F
1O
1M
1H
0B
0G
13
1P
1I
0H
1B
0I
#440000
0!
04
05
1+
#445000
1!
14
15
0+
1A
19
07
1*
1:
0@
1;
#450000
0!
04
05
1+
#455000
1!
14
15
0+
0A
1>
09
17
0D
0:
0*
1)
1D
1:
1@
1E
02
0;
0E
12
1;
0F
0O
0M
1F
1O
1M
1G
03
0P
0G
13
1P
1H
0B
0H
1B
1I
0I
#460000
0!
04
05
1+
#465000
1!
14
15
0+
1A
1R
0?
08
19
07
1*
0@
0D
0:
1E
02
0;
0F
0O
0M
1G
03
0P
1H
0B
1I
#470000
0!
04
05
1+
#475000
1!
14
15
0+
0Q
0N
1J
0C
0A
0>
1F
1O
0E
12
0H
0G
13
0R
1?
18
09
17
1D
1:
0'
0(
1%
0&
0*
0)
03
1P
0O
1M
0I
1H
1B
1@
1;
0:
02
0B
0P
1I
0;
0M
#480000
0!
04
05
1+
#485000
1!
14
15
0+
1A
19
07
1*
1:
0@
1;
#490000
0!
04
05
1+
#495000
1!
14
15
0+
0A
1>
09
17
0D
0:
0*
1)
1D
1:
1@
12
0;
02
1;
1M
0M
#500000
0!
04
05
1+
#505000
1!
14
15
0+
1A
1R
0?
08
19
07
1*
0@
0D
0:
12
0;
1M
#510000
0!
04
05
1+
#515000
1!
14
15
0+
1N
0A
0>
1E
02
0R
1?
18
09
17
1D
1:
1(
0*
0)
1O
0M
1@
1;
0:
0E
12
1P
0;
0O
1M
0P
#520000
0!
04
05
1+
#525000
1!
14
15
0+
1A
19
07
1*
1:
0@
1;
#530000
0!
04
05
1+
#535000
1!
14
15
0+
0A
1>
09
17
0D
0:
0*
1)
1D
1:
1@
1E
02
0;
0E
12
1;
1O
0M
0O
1M
1P
0P
#540000
0!
04
05
1+
#545000
1!
14
15
0+
1A
1R
0?
08
19
07
1*
0@
0D
0:
1E
02
0;
1O
0M
1P
#550000
0!
04
05
1+
#555000
1!
14
15
0+
1Q
0N
0A
0>
0F
0O
0E
12
0R
1?
18
09
17
1D
1:
1'
0(
0*
0)
13
0P
1F
1O
1M
1@
1;
0:
02
1B
03
1P
0;
0M
0B
#560000
0!
04
05
1+
#565000
1!
14
15
0+
1A
19
07
1*
1:
0@
1;
#570000
0!
04
05
1+
#575000
1!
14
15
0+
0A
1>
09
17
0D
0:
0*
1)
1D
1:
1@
12
0;
02
1;
1M
0M
#580000
0!
04
05
1+
#585000
1!
14
15
0+
1A
1R
0?
08
19
07
1*
0@
0D
0:
12
0;
1M
#590000
0!
04
05
1+
#595000
1!
14
15
0+
1N
0A
0>
1K
1E
02
0R
1?
18
09
17
1D
1:
1(
0*
0)
1@
1;
0F
0O
0M
0:
0E
12
13
0P
0;
1F
1O
1M
1B
03
1P
0B
#600000
0!
04
05
1+
#605000
1!
14
15
0+
1A
19
07
1*
1:
0@
1;
#610000
0!
04
05
1+
#615000
1!
14
15
0+
0A
1>
09
17
0D
0:
0*
1)
1D
1:
1@
1E
02
0;
0E
12
1;
0F
0O
0M
1F
1O
1M
13
0P
03
1P
1B
0B
#620000
0!
04
05
1+
#625000
1!
14
15
0+
1A
1R
0L
0?
08
19
07
1*
1S
0P
0M
0I
0@
0;
0D
0:
1E
02
0F
0O
13
#630000
0!
04
05
1+
#635000
1!
14
15
0+
1T
0Q
0N
0J
0A
0>
0K
1F
1O
0E
12
0H
0R
1L
1?
18
09
17
1D
1:
1$
0'
0(
0%
0*
0)
0S
1@
1;
03
1P
0O
1M
1B
0:
02
0B
0P
0;
0M
#640000
0!
04
05
1+
#645000
1!
14
15
0+
0T
1A
19
07
0$
1*
1:
0@
1;
#650000
0!
04
05
1+
#655000
1!
14
15
0+
0A
1>
09
17
0D
0:
0*
1)
1D
1:
1@
12
0;
02
1;
1M
0M
#660000
0!
04
05
1+
#665000
1!
14
15
0+
1A
1R
0?
08
19
07
1*
0@
0D
0:
12
0;
1M
#670000
0!
04
05
1+
#675000
1!
14
15
0+
1N
0A
0>
1E
02
0R
1?
18
09
17
1D
1:
1(
0*
0)
1O
0M
1@
1;
0:
0E
12
1P
0;
0O
1M
0P
#680000
0!
04
05
1+
#685000
1!
14
15
0+
1A
19
07
1*
1:
0@
1;
#690000
0!
04
05
1+
#695000
1!
14
15
0+
0A
1>
09
17
0D
0:
0*
1)
1D
1:
1@
1E
02
0;
0E
12
1;
1O
0M
0O
1M
1P
0P
#700000
0!
04
05
1+
#705000
1!
14
15
0+
1A
1R
0?
08
19
07
1*
0@
0D
0:
1E
02
0;
1O
0M
1P
#710000
0!
04
05
1+
#715000
1!
14
15
0+
1Q
0N
0A
0>
0F
0O
0E
12
0R
1?
18
09
17
1D
1:
1'
0(
0*
0)
13
0P
1F
1O
1M
1@
1;
0:
02
1B
03
1P
0;
0M
0B
#720000
0!
04
05
1+
#725000
1!
14
15
0+
1A
19
07
1*
1:
0@
1;
#730000
0!
04
05
1+
#735000
1!
14
15
0+
0A
1>
09
17
0D
0:
0*
1)
1D
1:
1@
12
0;
02
1;
1M
0M
#740000
0!
04
05
1+
#745000
1!
14
15
0+
1A
1R
0?
08
19
07
1*
0@
0D
0:
12
0;
1M
#750000
0!
04
05
1+
#755000
1!
14
15
0+
1N
0A
0>
1E
02
0R
1?
18
09
17
1D
1:
1(
0*
0)
0F
0O
0M
1@
1;
0:
0E
12
13
0P
0;
1F
1O
1M
1B
03
1P
0B
#760000
0!
04
05
1+
#765000
1!
14
15
0+
1A
19
07
1*
1:
0@
1;
#770000
0!
04
05
1+
#775000
1!
14
15
0+
0A
1>
09
17
0D
0:
0*
1)
1D
1:
1@
1E
02
0;
0E
12
1;
0F
0O
0M
1F
1O
1M
13
0P
03
1P
1B
0B
#780000
0!
04
05
1+
#785000
1!
14
15
0+
1A
1R
0?
08
19
07
1*
0@
0D
0:
1E
02
0;
0F
0O
0M
13
0P
1B
#790000
0!
04
05
1+
#795000
1!
14
15
0+
0Q
0N
1C
0A
0>
1F
1O
0E
12
1G
03
0R
1?
18
09
17
1D
1:
0'
0(
1&
0*
0)
0G
13
1P
0O
1M
1H
0B
1@
1;
0:
02
0H
1B
0P
1I
0;
0M
0I
#800000
0!
04
05
1+
#805000
1!
14
15
0+
1A
19
07
1*
1:
0@
1;
#810000
0!
04
05
1+
#815000
1!
14
15
0+
0A
1>
09
17
0D
0:
0*
1)
1D
1:
1@
12
0;
02
1;
1M
0M
#820000
0!
04
05
1+
#825000
1!
14
15
0+
1A
1R
0?
08
19
07
1*
0@
0D
0:
12
0;
1M
#830000
0!
04
05
1+
#835000
1!
14
15
0+
1N
0A
0>
1E
02
0R
1?
18
09
17
1D
1:
1(
0*
0)
1O
0M
1@
1;
0:
0E
12
1P
0;
0O
1M
0P
#840000
0!
04
05
1+
#845000
1!
14
15
0+
1A
19
07
1*
1:
0@
1;
#850000
0!
04
05
1+
#855000
1!
14
15
0+
0A
1>
09
17
0D
0:
0*
1)
1D
1:
1@
1E
02
0;
0E
12
1;
1O
0M
0O
1M
1P
0P
#860000
0!
04
05
1+
#865000
1!
14
15
0+
1A
1R
0?
08
19
07
1*
0@
0D
0:
1E
02
0;
1O
0M
1P
#870000
0!
04
05
1+
#875000
1!
14
15
0+
1Q
0N
0A
0>
0F
0O
0E
12
0R
1?
18
09
17
1D
1:
1'
0(
0*
0)
1G
03
0P
1F
1O
1M
1@
1;
0:
02
1H
0B
0G
13
1P
0;
0M
1I
0H
1B
0I
#880000
0!
04
05
1+
#885000
1!
14
15
0+
1A
19
07
1*
1:
0@
1;
#890000
0!
04
05
1+
#895000
1!
14
15
0+
0A
1>
09
17
0D
0:
0*
1)
1D
1:
1@
12
0;
02
1;
1M
0M
#900000
0!
04
05
1+
#905000
1!
14
15
0+
1A
1R
0?
08
19
07
1*
0@
0D
0:
12
0;
1M
#910000
0!
04
05
1+
#915000
1!
14
15
0+
1N
0A
0>
1E
02
0R
1?
18
09
17
1D
1:
1(
0*
0)
0F
0O
0M
1@
1;
0:
0E
12
1G
03
0P
0;
1F
1O
1M
1H
0B
0G
13
1P
1I
0H
1B
0I
#920000
0!
04
05
1+
#925000
1!
14
15
0+
1A
19
07
1*
1:
0@
1;
#930000
0!
04
05
1+
#935000
1!
14
15
0+
0A
1>
09
17
0D
0:
0*
1)
1D
1:
1@
1E
02
0;
0E
12
1;
0F
0O
0M
1F
1O
1M
1G
03
0P
0G
13
1P
1H
0B
0H
1B
1I
0I
#940000
0"
0!
06
04
05
1+
0L
0?
0@
#945000
1!
14
15
0+
#950000
0#
0!
0<
04
05
0=
1+
0>
0C
0N
0Q
0:
08
0B
03
0M
02
0P
0O
0)
0&
0(
0'
0;
#955000
1!
14
15
0+
#960000
0!
04
05
1+
#965000
1!
14
15
0+
#970000
0!
04
05
1+
#975000
1!
14
15
0+
#980000
0!
04
05
1+
#985000
1!
14
15
0+
#990000
0!
04
05
1+
#995000
1!
14
15
0+
